Number,Name,Rx Freq,Tx Freq,Ch Mode,Power,Rx Tone,Tx Tone,Color Code,Rx Group List,Contact,Repeater Slot,Bandwidth,Squelch Level
0,145.200A S08,145.20000,145.20000,Analog,High,None,None,0,1,1,1,12.5,3
1,145.200D S08,145.20000,145.20000,Digital,High,None,None,0,1,1,1,12.5,3
2,145.225A S09,145.22500,145.22500,Analog,High,None,None,0,1,1,1,12.5,3
3,145.225D S09,145.22500,145.22500,Digital,High,None,None,0,1,1,1,12.5,3
4,145.250A S10,145.25000,145.25000,Analog,High,None,None,0,1,1,1,12.5,3
5,145.250D S10,145.25000,145.25000,Digital,High,None,None,0,1,1,1,12.5,3
6,145.275A S11,145.27500,145.27500,Analog,High,None,None,0,1,1,1,12.5,3
7,145.275D S11,145.27500,145.27500,Digital,High,None,None,0,1,1,1,12.5,3
8,145.300A S12,145.30000,145.30000,Analog,High,None,None,0,1,1,1,12.5,3
9,145.300D S12,145.27500,145.27500,Digital,High,None,None,0,1,1,1,12.5,3
10,145.325A S13,145.32500,145.32500,Analog,High,None,None,0,1,1,1,12.5,3
11,145.325D S13,145.32500,145.32500,Digital,High,None,None,0,1,1,1,12.5,3
12,145.350A S14,145.35000,145.35000,Analog,High,None,None,0,1,1,1,12.5,3
13,145.375A S15,145.37500,145.37500,Analog,High,None,None,0,1,1,1,12.5,3
14,145.375D S15,145.37500,145.37500,Digital,High,None,None,0,1,1,1,12.5,3
15,145.400A S16,145.40000,145.40000,Analog,High,None,None,0,1,1,1,12.5,3
16,145.400D S16,145.40000,145.40000,Digital,High,None,None,0,1,1,1,12.5,3
17,145.425A S17,145.42500,145.42500,Analog,High,None,None,0,1,1,1,12.5,3
18,145.425D S17,145.40000,145.40000,Digital,High,None,None,0,1,1,1,12.5,3
19,145.450A S18,145.45000,145.45000,Analog,High,None,None,0,1,1,1,12.5,3
20,145.450D S18,145.45000,145.45000,Digital,High,None,None,0,1,1,1,12.5,3
21,145.475D S19,145.47500,145.47500,Digital,High,None,None,0,1,1,1,12.5,3
22,145.500A 20CALL,145.50000,145.50000,Analog,High,None,None,0,1,1,1,12.5,3
23,145.500D 20CALL,145.50000,145.50000,Digital,High,None,None,0,1,1,1,12.5,3
24,145.525A S21,145.52500,145.52500,Analog,High,None,None,0,1,1,1,12.5,3
25,145.525D S21,145.52500,145.52500,Digital,High,None,None,0,1,1,1,12.5,3
26,145.550A S22,145.55000,145.55000,Analog,High,None,None,0,1,1,1,12.5,3
27,145.550D S22,145.55000,145.55000,Digital,High,None,None,0,1,1,1,12.5,3
28,145.575A S23,145.57500,145.57500,Analog,High,None,None,0,1,1,1,12.5,3
29,145.575D S23,145.57500,145.57500,Digital,High,None,None,0,1,1,1,12.5,3
30,147.475A S19,145.47500,145.47500,Analog,High,None,None,0,1,1,1,12.5,3
31,433.400A SU16,433.40000,433.40000,Analog,High,None,None,0,0,0,1,12.5,3
32,433.425A SU17,433.42500,433.42500,Analog,High,None,None,0,0,0,1,12.5,3
33,433.450A SU18,433.45000,433.45000,Analog,High,None,None,0,0,0,1,12.5,3
34,433.475A SU19,433.47500,433.47500,Analog,High,None,None,0,0,0,1,12.5,3
35,433.500A CALL,433.50000,433.50000,Analog,High,None,None,0,0,0,1,12.5,3
36,433.525A SU21,433.52500,433.52500,Analog,High,None,None,0,0,0,1,12.5,3
37,433.550A SU22,433.55000,433.55000,Analog,High,None,None,0,0,0,1,12.5,3
38,433.575A SU23,433.57500,433.57500,Analog,High,None,None,0,0,0,1,12.5,3
39,DH1,438.58750,438.58750,Digital,High,None,None,1,1,1,1,12.5,3
40,DH2,438.60000,438.60000,Digital,High,None,None,1,1,1,1,12.5,3
41,DH3-CALL,438.61250,438.61250,Digital,High,None,None,1,1,1,1,12.5,3
42,DH4,438.62500,438.62500,Digital,High,None,None,1,1,1,1,12.5,3
43,DH5,438.63750,438.63750,Digital,High,None,None,1,1,1,1,12.5,3
44,DH6,438.65000,438.65000,Digital,High,None,None,0,1,1,1,12.5,3
45,ABs1-Echo,439.66250,430.66250,Digital,High,None,None,1,0,5,1,12.5,3
46,ABs1t91WW,439.66250,430.66250,Digital,High,None,None,1,2,2,1,12.5,3
47,ABs1t92EU,439.66250,430.66250,Digital,High,None,None,1,3,4,1,12.5,3
48,ABs1t93USA,439.66250,430.66250,Digital,High,None,None,1,4,3,1,12.5,3
49,ABs1t9Loc,439.66250,430.66250,Digital,High,None,None,1,1,1,1,12.5,3
50,ABs2-Echo,439.66250,430.66250,Digital,High,None,None,1,0,5,2,12.5,3
51,AB2R4000UNLINK,439.66250,430.66250,Digital,High,None,None,1,1,6,2,12.5,3
52,AB2R4415SCHAT,439.66250,430.66250,Digital,High,None,None,1,1,8,2,12.5,3
53,AB2R5000STAT,439.66250,430.66250,Digital,High,None,None,1,1,9,2,12.5,3
54,ABs2t9Loc,439.66250,430.66250,Digital,High,None,None,1,1,1,2,12.5,3
55,BBs1-Echo,439.71250,430.71250,Digital,High,None,None,1,0,5,1,12.5,3
56,BBs1t91WW,439.71250,430.71250,Digital,High,None,None,1,2,2,1,12.5,3
57,BBs1t92EU,439.71250,430.71250,Digital,High,None,None,1,3,4,1,12.5,3
58,BBs1t93USA,439.71250,430.71250,Digital,High,None,None,1,4,3,1,12.5,3
59,BBs1t9Loc,439.71250,430.71250,Digital,High,None,None,1,1,1,1,12.5,3
60,BBs2-Echo,439.71250,430.71250,Digital,High,None,None,1,0,5,2,12.5,3
61,BB2R4000UNLINK,439.71250,430.71250,Digital,High,None,None,1,1,6,2,12.5,3
62,BB2R4415SCHAT,439.71250,430.71250,Digital,High,None,None,1,1,8,2,12.5,3
63,BB2R5000STAT,439.71250,430.71250,Digital,High,None,None,1,1,9,2,12.5,3
64,BBs2t9Loc,439.71250,430.71250,Digital,High,None,None,1,1,1,2,12.5,3
65,BIs1-Echo,439.66250,430.66250,Digital,High,None,None,1,0,5,1,12.5,3
66,BIs1t91WW,439.66250,430.66250,Digital,High,None,None,1,2,2,1,12.5,3
67,BIs1t92EU,439.66250,430.66250,Digital,High,None,None,1,3,4,1,12.5,3
68,BIs1t93USA,439.66250,430.66250,Digital,High,None,None,1,4,3,1,12.5,3
69,BIs1t9Loc,439.66250,430.66250,Digital,High,None,None,1,1,1,1,12.5,3
70,BIs2-Echo,439.66250,430.66250,Digital,High,None,None,1,0,5,2,12.5,3
71,BI2R4000UNLINK,439.66250,430.66250,Digital,High,None,None,1,1,6,2,12.5,3
72,BI2R4415SCHAT,439.66250,430.66250,Digital,High,None,None,1,1,8,2,12.5,3
73,BI2R5000STAT,439.66250,430.66250,Digital,High,None,None,1,1,9,2,12.5,3
74,BIs2t9Loc,439.66250,430.66250,Digital,High,None,None,1,1,1,2,12.5,3
75,DE2R4400UK,145.63750,145.03750,Digital,High,None,None,1,1,10,2,12.5,3
76,DE2R4405Scot,145.63750,145.03750,Digital,High,None,None,1,1,7,2,12.5,3
77,DEs1-Echo,145.63750,145.03750,Digital,High,None,None,1,0,5,1,12.5,3
78,DEs1t91WW,145.63750,145.03750,Digital,High,None,None,1,2,2,1,12.5,3
79,DEs1t92EU,145.63750,145.03750,Digital,High,None,None,1,3,4,1,12.5,3
80,DEs1t93USA,145.63750,145.03750,Digital,High,None,None,1,4,3,1,12.5,3
81,DEs1t9Loc,145.63750,145.03750,Digital,High,None,None,1,1,1,1,12.5,3
82,DEs2-Echo,145.63750,145.03750,Digital,High,None,None,1,0,5,2,12.5,3
83,DE2R4000UNLINK,145.63750,145.03750,Digital,High,None,None,1,1,6,2,12.5,3
84,DE2R4415Schat,145.63750,145.03750,Digital,High,None,None,1,1,8,2,12.5,3
85,DE2R5000STAT,145.63750,145.03750,Digital,High,None,None,1,1,9,2,12.5,3
86,DEs2t9Loc,145.63750,145.03750,Digital,High,None,None,1,1,1,2,12.5,3
87,EA2R4400UK,439.53750,430.53750,Digital,High,None,None,1,1,10,2,12.5,3
88,EA2R4405Scot,439.53750,430.53750,Digital,High,None,None,1,1,7,2,12.5,3
89,EAs1-Echo,439.53750,430.53750,Digital,High,None,None,1,0,5,1,12.5,3
90,EAs1t91WW,439.53750,430.53750,Digital,High,None,None,1,2,2,1,12.5,3
91,EAs1t92EU,439.53750,430.53750,Digital,High,None,None,1,3,4,1,12.5,3
92,EAs1t93USA,439.53750,430.53750,Digital,High,None,None,1,4,3,1,12.5,3
93,EAs1t9Loc,439.53750,430.53750,Digital,High,None,None,1,1,1,1,12.5,3
94,EAs2-Echo,439.53750,430.53750,Digital,High,None,None,1,0,5,2,12.5,3
95,EA2R4000UNLINK,439.53750,430.53750,Digital,High,None,None,1,1,6,2,12.5,3
96,EA2R4415Schat,439.53750,430.53750,Digital,High,None,None,1,1,8,2,12.5,3
97,EA2R5000STAT,439.53750,430.53750,Digital,High,None,None,1,1,9,2,12.5,3
98,EAs2t9Loc,439.53750,430.53750,Digital,High,None,None,1,1,1,2,12.5,3
99,EE2R4400UK,430.92500,438.52500,Digital,High,None,None,1,1,10,2,12.5,3
100,EE2R4405Scot,430.92500,438.52500,Digital,High,None,None,1,1,7,2,12.5,3
101,EEs1-Echo,430.92500,438.52500,Digital,High,None,None,1,0,5,1,12.5,3
102,EEs1t91WW,430.92500,438.52500,Digital,High,None,None,1,2,2,1,12.5,3
103,EEs1t92EU,430.92500,438.52500,Digital,High,None,None,1,3,4,1,12.5,3
104,EEs1t93USA,430.92500,438.52500,Digital,High,None,None,1,4,3,1,12.5,3
105,EEs1t9Loc,430.92500,438.52500,Digital,High,None,None,1,1,1,1,12.5,3
106,EEs2-Echo,430.92500,438.52500,Digital,High,None,None,1,0,5,2,12.5,3
107,EE2R4000UNLINK,430.92500,438.52500,Digital,High,None,None,1,1,6,2,12.5,3
108,EE2R4415Schat,430.92500,438.52500,Digital,High,None,None,1,1,8,2,12.5,3
109,EE2R5000STAT,430.92500,438.52500,Digital,High,None,None,1,1,9,2,12.5,3
110,EEs2t9Loc,430.92500,438.52500,Digital,High,None,None,1,1,1,2,12.5,3
111,EIs1-Echo,430.85000,438.45000,Digital,High,None,None,1,0,5,1,12.5,3
112,EIs1t91WW,430.85000,438.45000,Digital,High,None,None,1,2,2,1,12.5,3
113,EIs1t92EU,430.85000,438.45000,Digital,High,None,None,1,3,4,1,12.5,3
114,EIs1t93USA,430.85000,438.45000,Digital,High,None,None,1,4,3,1,12.5,3
115,EIs1t9Loc,430.85000,438.45000,Digital,High,None,None,1,1,1,1,12.5,3
116,EIs2-Echo,430.85000,438.45000,Digital,High,None,None,1,0,5,2,12.5,3
117,EI2R4000UNLINK,430.85000,438.45000,Digital,High,None,None,1,1,6,2,12.5,3
118,EI2R4415SCHAT,430.85000,438.45000,Digital,High,None,None,1,1,8,2,12.5,3
119,EI2R5000STAT,430.85000,438.45000,Digital,High,None,None,1,1,9,2,12.5,3
120,EIs2t9Loc,430.85000,438.45000,Digital,High,None,None,1,1,1,2,12.5,3
121,FEs1-Echo,439.47500,430.47500,Digital,High,None,None,1,0,5,1,12.5,3
122,FEs1t91WW,439.47500,430.47500,Digital,High,None,None,1,2,2,1,12.5,3
123,FEs1t92EU,439.47500,430.47500,Digital,High,None,None,1,3,4,1,12.5,3
124,FEs1t93USA,439.47500,430.47500,Digital,High,None,None,1,4,3,1,12.5,3
125,FEs1t9Loc,439.47500,430.47500,Digital,High,None,None,1,1,1,1,12.5,3
126,FEs2-Echo,439.47500,430.47500,Digital,High,None,None,1,0,5,2,12.5,3
127,FEs2t9Loc,439.47500,430.47500,Digital,High,None,None,1,1,1,2,12.5,3
128,IIs1-Echo,439.45000,430.45000,Digital,High,None,None,1,0,5,1,12.5,3
129,IIs1t91WW,439.45000,430.45000,Digital,High,None,None,1,2,2,1,12.5,3
130,IIs1t92EU,439.45000,430.45000,Digital,High,None,None,1,3,4,1,12.5,3
131,IIs1t93USA,439.45000,430.45000,Digital,High,None,None,1,4,3,1,12.5,3
132,IIs1t9Loc,439.45000,430.45000,Digital,High,None,None,1,1,1,1,12.5,3
133,IIs2-Echo,439.45000,430.45000,Digital,High,None,None,1,0,5,2,12.5,3
134,II2R4000UNLINK,439.45000,430.45000,Digital,High,None,None,1,1,6,2,12.5,3
135,II2R4415SCHAT,439.45000,430.45000,Digital,High,None,None,1,1,8,2,12.5,3
136,II2R5000STAT,439.45000,430.45000,Digital,High,None,None,1,1,9,2,12.5,3
137,IIs2t9Loc,439.45000,430.45000,Digital,High,None,None,1,1,1,2,12.5,3
138,JDs1-Echo,439.41250,430.41250,Digital,High,None,None,1,0,5,1,12.5,3
139,JDs1t91WW,439.41250,430.41250,Digital,High,None,None,1,2,2,1,12.5,3
140,JDs1t92EU,439.41250,430.41250,Digital,High,None,None,1,3,4,1,12.5,3
141,JDs1t93USA,439.41250,430.41250,Digital,High,None,None,1,4,3,1,12.5,3
142,JDs1t9Loc,439.41250,430.41250,Digital,High,None,None,1,1,1,1,12.5,3
143,JDs2-Echo,439.41250,430.41250,Digital,High,None,None,1,0,5,2,12.5,3
144,JDs2t9Loc,439.41250,430.41250,Digital,High,None,None,1,1,1,2,12.5,3
145,LSs1-Echo,439.40000,430.40000,Digital,High,None,None,1,0,5,1,12.5,3
146,LSs1t91WW,439.40000,430.40000,Digital,High,None,None,1,2,2,1,12.5,3
147,LSs1t92EU,439.40000,430.40000,Digital,High,None,None,1,3,4,1,12.5,3
148,LSs1t93USA,439.40000,430.40000,Digital,High,None,None,1,4,3,1,12.5,3
149,LSs1t9Loc,439.40000,430.40000,Digital,High,None,None,1,1,1,1,12.5,3
150,LSs2-Echo,439.40000,430.40000,Digital,High,None,None,1,0,5,2,12.5,3
151,LSs2t9Loc,439.40000,430.40000,Digital,High,None,None,1,1,1,2,12.5,3
152,LUs1-Echo,439.67500,430.67500,Digital,High,None,None,1,0,5,1,12.5,3
153,LUs1t91WW,439.67500,430.67500,Digital,High,None,None,1,2,2,1,12.5,3
154,LUs1t92EU,439.67500,430.67500,Digital,High,None,None,1,3,4,1,12.5,3
155,LUs1t93USA,439.67500,430.67500,Digital,High,None,None,1,4,3,1,12.5,3
156,LUs1t9Loc,439.67500,430.67500,Digital,High,None,None,1,1,1,1,12.5,3
157,LUs2-Echo,439.67500,430.67500,Digital,High,None,None,1,0,5,2,12.5,3
158,LUs2t9Loc,439.67500,430.67500,Digital,High,None,None,1,1,1,2,12.5,3
159,SQs1-Echo,439.67500,430.67500,Digital,High,None,None,1,0,5,1,12.5,3
160,SQs1t92EU,439.67500,430.67500,Digital,High,None,None,1,3,4,1,12.5,3
161,SQs1t91WW,439.67500,430.67500,Digital,High,None,None,1,2,2,1,12.5,3
162,SQs1t93USA,439.67500,430.67500,Digital,High,None,None,1,4,3,1,12.5,3
163,SQs1t9Loc,439.67500,430.67500,Digital,High,None,None,1,1,1,1,12.5,3
164,SQs2-Echo,439.67500,430.67500,Digital,High,None,None,1,0,5,2,12.5,3
165,SQ2R4000UNLINK,439.67500,430.67500,Digital,High,None,None,1,1,6,2,12.5,3
166,SQ2R4415SCHAT,439.67500,430.67500,Digital,High,None,None,1,1,8,2,12.5,3
167,SQ2R5000STAT,439.67500,430.67500,Digital,High,None,None,1,1,9,2,12.5,3
168,SQs2t9Loc,439.67500,430.67500,Digital,High,None,None,1,1,1,2,12.5,3
169,PMR446-A01,446.00625,446.00625,Analog,High,None,None,0,0,1,1,12.5,3
170,PMR446-A02,446.01875,446.01875,Analog,High,None,None,0,0,0,1,12.5,3
171,PMR446-A03,446.03125,446.03125,Analog,High,None,None,0,0,0,1,12.5,3
172,PMR446-A04,446.04375,446.04375,Analog,High,None,None,0,0,0,1,12.5,3
173,PMR446-A05,446.05625,446.05625,Analog,High,None,None,0,0,0,1,12.5,3
174,PMR446-A06,446.06875,446.06875,Analog,High,None,None,0,0,0,1,12.5,3
175,PMR446-A07,446.08125,446.08125,Analog,High,None,None,0,0,0,1,12.5,3
176,PMR446-A08,446.09375,446.09375,Analog,High,None,None,0,0,0,1,12.5,3
177,PMR446-A09,446.10625,446.10625,Analog,High,None,None,0,0,1,1,12.5,3
178,PMR446-A10,446.11875,446.11875,Analog,High,None,None,0,0,0,1,12.5,3
179,PMR446-A11,446.13125,446.13125,Analog,High,None,None,0,0,0,1,12.5,3
180,PMR446-A12,446.14375,446.14375,Analog,High,None,None,0,0,0,1,12.5,3
181,PMR446-A13,446.15625,446.15625,Analog,High,None,None,0,0,0,1,12.5,3
182,PMR446-A14,446.16875,446.16875,Analog,High,None,None,0,0,0,1,12.5,3
183,PMR446-A15,446.18125,446.18125,Analog,High,None,None,0,0,0,1,12.5,3
184,PMR446-A16,446.19375,446.19375,Analog,High,None,None,0,0,0,1,12.5,3
185,PMR446-D01,446.00625,446.00625,Digital,High,None,None,1,1,1,1,12.5,3
186,PMR446-D02,446.01875,446.01875,Digital,High,None,None,1,1,1,1,12.5,3
187,PMR446-D03,446.03125,446.03125,Digital,High,None,None,1,1,1,1,12.5,3
188,PMR446-D04,446.04375,446.04375,Digital,High,None,None,1,1,1,1,12.5,3
189,PMR446-D05,446.05625,446.05625,Digital,High,None,None,1,1,1,1,12.5,3
190,PMR446-D06,446.06875,446.06875,Digital,High,None,None,1,1,1,1,12.5,3
191,PMR446-D07,446.08125,446.08125,Digital,High,None,None,1,1,1,1,12.5,3
192,PMR446-D08,446.09375,446.09375,Digital,High,None,None,1,1,1,1,12.5,3
193,PMR446-D09,446.10625,446.10625,Digital,High,None,None,1,1,1,1,12.5,3
194,PMR446-D10,446.11875,446.11875,Digital,High,None,None,1,1,1,1,12.5,3
195,PMR446-D11,446.13125,446.13125,Digital,High,None,None,1,1,1,1,12.5,3
196,PMR446-D12,446.14375,446.14375,Digital,High,None,None,1,1,1,1,12.5,3
197,PMR446-D13,446.15625,446.15625,Digital,High,None,None,1,1,1,1,12.5,3
198,PMR446-D14,446.16875,446.16875,Digital,High,None,None,1,1,1,1,12.5,3
199,PMR446-D15,446.18125,446.18125,Digital,High,None,None,1,1,1,1,12.5,3
200,PMR446-D16,446.19375,446.19375,Digital,High,None,None,1,1,1,1,12.5,3
201,R0 Input,145.00000,145.00000,Analog,High,103.5,103.5,0,0,0,1,12.5,3
202,R0 Output,145.60000,145.60000,Analog,High,103.5,103.5,0,0,0,1,12.5,3
203,3BF Bedford,145.78750,145.18750,Analog,High,None,77.0,0,0,0,1,12.5,3
204,3BL-Bedford,433.17500,434.77500,Analog,High,None,77.0,0,0,0,1,12.5,3
205,3BM Bham,145.71250,145.11250,Analog,High,None,67.0,0,0,0,1,12.5,3
206,3BP-Belper,430.88750,438.48750,Analog,High,None,71.9,0,0,0,1,12.5,3
207,3CB-Birmingha,433.35000,434.95000,Analog,High,None,67.0,0,0,0,1,12.5,3
208,3CF Markfield,145.60000,145.00000,Analog,High,None,77.0,0,0,0,1,12.5,3
209,3CI-Corby,430.82500,438.42500,Analog,High,None,77.0,0,0,0,1,12.5,3
210,3CO Corby,145.66250,145.06250,Analog,High,None,77.0,0,0,0,1,12.5,3
211,3CV-Coventry,433.22500,434.82500,Analog,High,None,67.0,0,0,0,1,12.5,3
212,3DC Derby,145.68750,145.08750,Analog,High,None,71.9,0,0,0,1,12.5,3
213,3DS-Worksop,433.32500,434.92500,Analog,High,None,71.9,0,0,0,1,12.5,3
214,3DY-Wirkswort,433.25000,434.85000,Analog,High,None,71.9,0,0,0,1,12.5,3
215,3EE-Mansfield,433.30000,434.90000,Analog,High,None,71.9,0,0,0,1,12.5,3
216,3EH-Banbury,430.96250,438.56250,Analog,High,None,67.0,0,0,0,1,12.5,3
217,3EM ColdAshby,145.76250,145.16250,Analog,High,None,77.0,0,0,0,1,12.5,3
218,3EU-ColdAshby,438.43750,430.83750,Analog,High,None,77.0,0,0,0,1,12.5,3
219,3FJ-Asgarby,430.95000,438.55000,Analog,High,None,71.9,0,0,0,1,12.5,3
220,3FR Spilsby,145.77500,145.17500,Analog,High,None,71.9,0,0,0,1,12.5,3
221,3CF-Sutton C,433.30000,434.90000,Analog,High,None,67.0,0,0,0,1,12.5,3
222,3GR-Grantham,430.85000,438.45000,Analog,High,None,71.9,0,0,0,1,12.5,3
223,3GY-Cleethorp,433.27500,434.87500,Analog,High,None,88.5,0,0,0,1,12.5,3
224,3HH Buxton,145.70000,145.10000,Analog,High,None,71.9,0,0,0,1,12.5,3
225,3HT-Hinckley,433.27500,434.87500,Analog,High,None,77.0,0,0,0,1,12.5,3
226,3IC-Wlvrhmptn,433.12500,434.72500,Analog,High,None,67.0,0,0,0,1,12.5,3
227,3IN Alfreton,145.63750,145.03750,Analog,High,None,71.9,0,0,0,1,12.5,3
228,3KC-Stourbdg,430.90000,438.50000,Analog,High,None,67.0,0,0,0,1,12.5,3
229,3LE-Markfield,433.10000,434.70000,Analog,High,None,77.0,0,0,0,1,12.5,3
230,3LM Lincoln,145.72500,145.12500,Analog,High,None,71.9,0,0,0,1,12.5,3
231,3LS-Lincoln,433.05000,434.65000,Analog,High,None,71.9,0,0,0,1,12.5,3
232,3LT-Luton,433.25000,434.85000,Analog,High,None,77.0,0,0,0,1,12.5,3
233,3ME-Rugby,433.15000,434.75000,Analog,High,None,67.0,0,0,0,1,12.5,3
234,3MW-Lton Spa,433.25000,434.85000,Analog,High,None,67.0,0,0,0,1,12.5,3
235,3NF Nottinghm,145.62500,145.02500,Analog,High,None,77.0,0,0,0,1,12.5,3
236,3NH-Northmptn,430.87500,438.47500,Analog,High,None,77.0,0,0,0,1,12.5,3
237,3NM-Nottinghm,433.17500,434.77500,Analog,High,None,71.9,0,0,0,1,12.5,3
238,3NP-Towcester,430.88750,438.48750,Analog,High,None,77.0,0,0,0,1,12.5,3
239,3OV-St Neots,433.12500,434.72500,Analog,High,None,94.8,0,0,0,1,12.5,3
240,3RB-Bolsover,433.20000,434.80000,Analog,High,None,71.9,0,0,0,1,12.5,3
241,3SA-Stamford,430.96250,438.56250,Analog,High,None,118.8,0,0,0,1,12.5,3
242,3SM-Stoke OT,433.32500,434.92500,Analog,High,None,103.5,0,0,0,1,12.5,3
243,3SR-Skegness,430.91250,438.51250,Analog,High,None,71.9,0,0,0,1,12.5,3
244,3ST-Stoke OT,433.22500,434.82500,Analog,High,None,103.5,0,0,0,1,12.5,3
245,3TA Tamworth,145.73750,145.13750,Analog,High,None,67.0,0,0,0,1,12.5,3
246,3TC-Nottinghm,433.35000,434.95000,Analog,High,None,71.9,0,0,0,1,12.5,3
247,3TH-Tamworth,433.37500,434.97500,Analog,High,None,67.0,0,0,0,1,12.5,3
248,3TO Northamt,145.61250,145.01250,Analog,High,None,77.0,0,0,0,1,12.5,3
249,3WJ-Scunthorp,433.12500,434.72500,Analog,High,None,88.5,0,0,0,1,12.5,3
250,3WK Leamingto,145.77500,145.17500,Analog,High,None,67.0,0,0,0,1,12.5,3
251,3WL-Wythall,430.95000,438.55000,Analog,High,None,67.0,0,0,0,1,12.5,3
252,3WM-Longbridg,433.05000,434.65000,Analog,High,None,67.0,0,0,0,1,12.5,3
253,3WN-Wolverham,433.00000,434.60000,Analog,High,None,67.0,0,0,0,1,12.5,3
254,3XN-Worksop,430.92500,438.52500,Analog,High,None,71.9,0,0,0,1,12.5,3
255,3XX-Daventry,430.91250,438.51250,Analog,High,None,77.0,0,0,0,1,12.5,3
256,3ZI-Stafford,430.97500,438.57500,Analog,High,None,103.5,0,0,0,1,12.5,3
257,7NR-Nottinghm,439.43750,430.43750,Analog,High,None,71.9,0,0,0,1,12.5,3
258,3CP Fermanagh,145.73750,145.13750,Analog,High,None,110.9,0,0,0,1,12.5,3
259,3DX-Derry,433.30000,434.90000,Analog,High,None,110.9,0,0,0,1,12.5,3
260,3KK-Ballycstl,430.97500,438.57500,Analog,High,None,110.9,0,0,0,1,12.5,3
261,3LY Limavady,145.60000,145.00000,Analog,High,None,110.9,0,0,0,1,12.5,3
262,3MT-Magherafe,430.90000,438.50000,Analog,High,None,110.9,0,0,0,1,12.5,3
263,3NI Belfast,145.72500,145.12500,Analog,High,None,110.9,0,0,0,1,12.5,3
264,3OM-Omagh,430.95000,438.55000,Analog,High,None,110.9,0,0,0,1,12.5,3
265,3PK Ballycstl,145.66250,145.06250,Analog,High,None,110.9,0,0,0,1,12.5,3
266,3UL-Belfast,433.05000,434.65000,Analog,High,None,110.9,0,0,0,1,12.5,3
267,3WT Omagh,145.77500,145.17500,Analog,High,None,110.9,0,0,0,1,12.5,3
268,3AB-Sheffield,433.17500,434.77500,Analog,High,None,82.5,0,0,0,1,12.5,3
269,3CA-Carlisle,433.32500,434.92500,Analog,High,None,77.0,0,0,0,1,12.5,3
270,3CD Crook,145.68750,145.08750,Analog,High,None,118.8,0,0,0,1,12.5,3
271,3CY-York,430.86250,438.46250,Analog,High,None,88.5,0,0,0,1,12.5,3
272,3DV-Maltby,433.02500,434.62500,Analog,High,None,71.9,0,0,0,1,12.5,3
273,3EG-Wigan,430.91250,438.51250,Analog,High,None,82.5,0,0,0,1,12.5,3
274,3EP Preston,145.73750,145.13750,Analog,High,None,82.5,0,0,0,1,12.5,3
275,3EV Dufton,145.70000,145.10000,Analog,High,None,77.0,0,0,0,1,12.5,3
276,3FC-Blackpool,430.85000,438.45000,Analog,High,None,82.5,0,0,0,1,12.5,3
277,3GD Snaefell,145.62500,145.02500,Analog,High,None,110.9,0,0,0,1,12.5,3
278,3HA Corbridge,145.75000,145.15000,Analog,High,None,118.8,0,0,0,1,12.5,3
279,3HD-Huddersfd,433.22500,434.82500,Analog,High,None,82.5,0,0,0,1,12.5,3
280,3HG Thirsk,145.62500,145.02500,Analog,High,None,88.5,0,0,0,1,12.5,3
281,3HJ-Harrogat,433.02500,434.62500,Analog,High,None,118.8,0,0,0,1,12.5,3
282,3HS Walkingto,145.65000,145.05000,Analog,High,None,88.5,0,0,0,1,12.5,3
283,3IM-C-Douglas,430.82500,438.42500,Analog,High,None,110.9,0,0,0,1,12.5,3
284,3IM-P-Peel,430.87500,438.47500,Analog,High,None,110.9,0,0,0,1,12.5,3
285,3IM-R-Ramsey,430.82500,438.42500,Analog,High,None,71.9,0,0,0,1,12.5,3
286,3IM-S-Douglas,433.12500,434.72500,Analog,High,None,110.9,0,0,0,1,12.5,3
287,3IR Richmond Yrk,145.76250,145.16250,Analog,High,None,88.5,0,0,0,1,12.5,3
288,3KU-Ashton UL,433.07500,434.67500,Analog,High,None,82.5,0,0,0,1,12.5,3
289,3LD Lancaster,145.67500,145.07500,Analog,High,None,110.9,0,0,0,1,12.5,3
290,3LF-Kendal,433.35000,434.95000,Analog,High,None,110.9,0,0,0,1,12.5,3
291,3LI-Liverpool,433.25000,434.85000,Analog,High,None,82.5,0,0,0,1,12.5,3
292,3MA-Bury,433.02500,434.62500,Analog,High,None,82.5,0,0,0,1,12.5,3
293,3MI Manchestr,145.71250,145.11250,Analog,High,None,82.5,0,0,0,1,12.5,3
294,3MN Disley,145.65000,145.05000,Analog,High,None,82.5,0,0,0,1,12.5,3
295,3MR-Stockport,433.35000,434.95000,Analog,High,None,82.5,0,0,0,1,12.5,3
296,3MY-Westhghtn,433.27500,434.87500,Analog,High,None,82.5,0,0,0,1,12.5,3
297,3NA Barnsley,145.61250,145.01250,Analog,High,None,71.9,0,0,0,1,12.5,3
298,3NT-Newcastle,433.00000,434.60000,Analog,High,None,118.8,0,0,0,1,12.5,3
299,3NY-Bridlingt,430.82500,438.42500,Analog,High,None,88.5,0,0,0,1,12.5,3
300,3OA Southport,145.61250,145.01250,Analog,High,None,82.5,0,0,0,1,12.5,3
301,3PF-Nelson,433.00000,434.60000,Analog,High,None,82.5,0,0,0,1,12.5,3
302,3PP-Preston,433.37500,434.97500,Analog,High,None,82.5,0,0,0,1,12.5,3
303,3PZ-Dukinfld,430.90000,438.50000,Analog,High,None,82.5,0,0,0,1,12.5,3
304,3RF Accringtn,145.77500,145.17500,Analog,High,None,82.5,0,0,0,1,12.5,3
305,3SJ Northwich,145.68750,145.08750,Analog,High,None,103.5,0,0,0,1,12.5,3
306,3SO-Withernse,433.00000,434.60000,Analog,High,None,71.9,0,0,0,1,12.5,3
307,3SY-Barnsley,433.15000,434.75000,Analog,High,None,71.9,0,0,0,1,12.5,3
308,3TJ-Corbridge,433.30000,434.90000,Analog,High,None,118.8,0,0,0,1,12.5,3
309,3TP Shipley,145.72500,145.12500,Analog,High,None,82.5,0,0,0,1,12.5,3
310,3TS-Sunderlnd,433.17500,434.77500,Analog,High,None,118.8,0,0,0,1,12.5,3
311,3TW Gateshead,145.72500,145.12500,Analog,High,None,118.8,0,0,0,1,12.5,3
312,3US-Sheffield,433.00000,434.60000,Analog,High,None,103.5,0,0,0,1,12.5,3
313,3VE-Dufton,433.10000,434.70000,Analog,High,None,77.0,0,0,0,1,12.5,3
314,3WF-Otley,433.35000,434.95000,Analog,High,None,82.5,0,0,0,1,12.5,3
315,3XL-Shipley,430.88750,438.48750,Analog,High,None,82.5,0,0,0,1,12.5,3
316,3YC Driffield,145.75000,145.15000,Analog,High,None,88.5,0,0,0,1,12.5,3
317,3YW Wakefield,145.78750,145.18750,Analog,High,None,82.5,0,0,0,1,12.5,3
318,3ZN Sth Shlds,145.63750,145.03750,Analog,High,None,118.8,0,0,0,1,12.5,3
319,7HN-Leigh,430.87500,438.47500,Analog,High,None,82.5,0,0,0,1,12.5,3
320,7JL-Wigan,430.96250,438.56250,Analog,High,None,82.5,0,0,0,1,12.5,3
321,7KL-KirkbyLon,430.87500,438.47500,Analog,High,None,110.9,0,0,0,1,12.5,3
322,7RW Whitby,145.60000,145.00000,Analog,High,None,88.5,0,0,0,1,12.5,3
323,7SH-Sheffield,430.96250,438.56250,Analog,High,None,71.9,0,0,0,1,12.5,3
324,7SJ-Northwich,433.17500,434.77500,Analog,High,None,103.5,0,0,0,1,12.5,3
325,3AG Forfar,145.72500,145.12500,Analog,High,None,94.8,0,0,0,1,12.5,3
326,3AS Langholm,145.60000,145.00000,Analog,High,None,77.0,0,0,0,1,12.5,3
327,3AY Dalry,145.65000,145.05000,Analog,High,None,103.5,0,0,0,1,12.5,3
328,3BE-Duns,430.86250,438.46250,Analog,High,None,118.8,0,0,0,1,12.5,3
329,3BI Inverness,145.72500,145.12500,Analog,High,None,67.0,0,0,0,1,12.5,3
330,3BT Berwick OT,145.70000,145.10000,Analog,High,None,118.8,0,0,0,1,12.5,3
331,3CS Kilsyth,145.75000,145.15000,Analog,High,None,103.5,0,0,0,1,12.5,3
332,3DD-Dundee,433.25000,434.85000,Analog,High,None,94.8,0,0,0,1,12.5,3
333,3DG Newton St,145.77500,145.17500,Analog,High,None,103.5,0,0,0,1,12.5,3
334,3DM-Dumbartn,430.92500,438.52500,Analog,High,None,103.5,0,0,0,1,12.5,3
335,3DU Duns,145.76250,145.16250,Analog,High,None,118.8,0,0,0,1,12.5,3
336,3ED-Edinburgh,433.35000,434.95000,Analog,High,None,94.8,0,0,0,1,12.5,3
337,3EI Lochmaddy,145.61250,145.01250,Analog,High,None,88.5,0,0,0,1,12.5,3
338,3FE Stirling,145.66250,145.06250,Analog,High,None,103.5,0,0,0,1,12.5,3
339,3GL-Glasgow,430.90000,438.50000,Analog,High,None,103.5,0,0,0,1,12.5,3
340,3GN Banchory,145.77500,145.17500,Analog,High,None,67.0,0,0,0,1,12.5,3
341,3HI Mull,145.70000,145.10000,Analog,High,None,103.5,0,0,0,1,12.5,3
342,3HK-Selkirk,433.05000,434.65000,Analog,High,None,118.8,0,0,0,1,12.5,3
343,3IG Stornowa,145.77500,145.17500,Analog,High,None,88.5,0,0,0,1,12.5,3
344,3KE Glasgow,145.68750,145.08750,Analog,High,None,103.5,0,0,0,1,12.5,3
345,3KV-Kilsyth,430.97500,438.57500,Analog,High,None,103.5,0,0,0,1,12.5,3
346,3KW-Glasgow,430.82500,438.42500,Analog,High,None,103.5,0,0,0,1,12.5,3
347,3LA Sanquhar,145.71250,145.11250,Analog,High,None,103.5,0,0,0,1,12.5,3
348,3LB Lauder,145.78750,145.18750,Analog,High,None,118.8,0,1,0,1,12.5,3
349,3LU Lerwick,145.67500,145.07500,Analog,High,None,77.0,0,0,0,1,12.5,3
350,3NG Fraserburg,145.62500,145.02500,Analog,High,None,67.0,0,0,0,1,12.5,3
351,3OC Kirkwall,145.65000,145.05000,Analog,High,None,77.0,0,0,0,1,12.5,3
352,3OH-Linlithgw,430.95000,438.55000,Analog,High,None,94.8,0,0,0,1,12.5,3
353,3PA Paisley,145.62500,145.02500,Analog,High,None,103.5,0,0,0,1,12.5,3
354,3PR Perth,145.67500,145.07500,Analog,High,None,94.8,0,0,0,1,12.5,3
355,3PU-Perth,433.00000,434.60000,Analog,High,None,94.8,0,0,0,1,12.5,3
356,3SB Selkirk,145.65000,145.05000,Analog,High,None,118.8,0,0,0,1,12.5,3
357,3SS Elgin,145.60000,145.00000,Analog,High,None,67.0,0,0,0,1,12.5,3
358,3WA-Dalry,430.87500,438.47500,Analog,High,None,103.5,0,0,0,1,12.5,3
359,7DK Stranraer,145.68750,145.08750,Analog,High,None,103.5,0,0,0,1,12.5,3
360,7EI-Lochmaddy,430.85000,438.45000,Analog,High,None,88.5,0,0,0,1,12.5,3
361,3AH-E Dereham,433.27500,434.87500,Analog,High,None,94.8,0,0,0,1,12.5,3
362,3BR-Brighton,433.15000,434.75000,Analog,High,None,88.5,0,0,0,1,12.5,3
363,3BV-Hemel Hem,433.02500,434.62500,Analog,High,None,82.5,0,0,0,1,12.5,3
364,3BZ-Braintree,430.85000,438.45000,Analog,High,None,110.9,0,0,0,1,12.5,3
365,3CC-Chichestr,430.96250,438.56250,Analog,High,None,88.5,0,0,0,1,12.5,3
366,3CE-Colcheste,433.35000,434.95000,Analog,High,None,67.0,0,0,0,1,12.5,3
367,3CK-Charing,433.00000,434.60000,Analog,High,None,103.5,0,0,0,1,12.5,3
368,3CL-Clacton,433.22500,434.82500,Analog,High,None,67.0,0,0,0,1,12.5,3
369,3DE-Ipswich,433.17500,434.77500,Analog,High,None,110.9,0,0,0,1,12.5,3
370,3EA Wickhambr,145.68750,145.08750,Analog,High,None,110.9,0,0,0,1,12.5,3
371,3EB Uckfield,145.78750,145.18750,Analog,High,None,88.5,0,0,0,1,12.5,3
372,3EK-Margate,430.88750,438.48750,Analog,High,None,103.5,0,0,0,1,12.5,3
373,3EL E London,145.60000,145.00000,Analog,High,None,82.5,0,0,0,1,12.5,3
374,3ER-Danbury,433.07500,434.67500,Analog,High,None,110.9,0,0,0,1,12.5,3
375,3ES Hastings,145.67500,145.07500,Analog,High,None,103.5,0,0,0,1,12.5,3
376,3EZ-Wickhambr,430.97500,438.57500,Analog,High,None,110.9,0,0,0,1,12.5,3
377,3FK Folkstone,145.75000,145.15000,Analog,High,None,103.5,0,0,0,1,12.5,3
378,3GF-Guildford,433.30000,434.90000,Analog,High,None,88.5,0,0,0,1,12.5,3
379,3HE-Hastings,433.35000,434.95000,Analog,High,None,103.5,0,0,0,1,12.5,3
380,3HO-Horsham,430.88750,438.48750,Analog,High,None,88.5,0,0,0,1,12.5,3
381,3HR-Harrow,433.35000,434.95000,Analog,High,None,82.5,0,0,0,1,12.5,3
382,3HW-GideaPark,433.32500,434.92500,Analog,High,None,110.9,0,0,0,1,12.5,3
383,3HY-HaywardsH,430.90000,438.50000,Analog,High,None,88.5,0,0,0,1,12.5,3
384,3IH-Ipswich,433.10000,434.70000,Analog,High,None,110.9,0,0,0,1,12.5,3
385,3IK Rochester,145.76250,145.16250,Analog,High,None,103.5,0,0,0,1,12.5,3
386,3IP-S Nutfld,430.97500,438.57500,Analog,High,None,82.5,0,0,0,1,12.5,3
387,3JC-Norwich,430.90000,438.50000,Analog,High,None,94.8,0,0,0,1,12.5,3
388,3JS-GtYarmth,433.02500,434.62500,Analog,High,None,94.8,0,0,0,1,12.5,3
389,3KI Herne Bay,145.66250,145.06250,Analog,High,None,103.5,0,0,0,1,12.5,3
390,3KL-KingsLynn,433.10000,434.70000,Analog,High,None,94.8,0,0,0,1,12.5,3
391,3KN Maidstone,145.70000,145.10000,Analog,High,None,103.5,0,0,0,1,12.5,3
392,3KS Dover,145.62500,145.02500,Analog,High,None,103.5,0,0,0,1,12.5,3
393,3KY KingsLynn,145.71250,145.11250,Analog,High,None,94.8,0,0,0,1,12.5,3
394,3LR-Newhaven,430.86250,438.46250,Analog,High,None,88.5,0,0,0,1,12.5,3
395,3LV-N London,433.05000,434.65000,Analog,High,None,82.5,0,0,0,1,12.5,3
396,3MH E Grinstd,145.62500,145.02500,Analog,High,None,88.5,0,0,0,1,12.5,3
397,3NB Norwich,145.62500,145.02500,Analog,High,None,94.8,0,0,0,1,12.5,3
398,3NK-Erith,433.10000,434.70000,Analog,High,None,103.5,0,0,0,1,12.5,3
399,3NL North Ldn,145.77500,145.17500,Analog,High,None,82.5,0,0,0,1,12.5,3
400,3NN-Wells Nfk,433.05000,434.65000,Analog,High,None,94.8,0,0,0,1,12.5,3
401,3NR-Norwich,433.00000,434.60000,Analog,High,None,94.8,0,0,0,1,12.5,3
402,3NS-Caterham,439.67500,430.67500,Analog,High,None,82.5,0,0,0,1,12.5,3
403,3NU-Sheringhm,430.88750,438.48750,Analog,High,None,94.8,0,0,0,1,12.5,3
404,3NX-Crawley,430.85000,438.45000,Analog,High,None,88.5,0,0,0,1,12.5,3
405,3NZ Catton,145.60000,145.00000,Analog,High,None,94.8,0,0,0,1,12.5,3
406,3OY-Buckhurst,430.95000,438.55000,Analog,High,None,82.5,0,0,0,1,12.5,3
407,3PC-Peterboro,430.86250,438.46250,Analog,High,None,94.8,0,0,0,1,12.5,3
408,3PE Peterboro,145.67500,145.07500,Analog,High,None,94.8,0,0,0,1,12.5,3
409,3PI Royston,145.75000,145.15000,Analog,High,None,77.0,0,0,0,1,12.5,3
410,3PO Ipswich,145.65000,145.05000,Analog,High,None,110.9,0,0,0,1,12.5,3
411,3PY-Cambridge,430.90000,438.50000,Analog,High,None,77.0,0,0,0,1,12.5,3
412,3RE-Maidstone,433.27500,434.87500,Analog,High,None,103.5,0,0,0,1,12.5,3
413,3SK-Canterbry,433.15000,434.75000,Analog,High,None,103.5,0,0,0,1,12.5,3
414,3TE FrintonOS,145.61250,145.01250,Analog,High,None,67.0,0,0,0,1,12.5,3
415,3VH-Welwyn GC,433.32500,434.92500,Analog,High,None,82.5,0,0,0,1,12.5,3
416,3WI-Wisbech,433.37500,434.97500,Analog,High,None,94.8,0,0,0,1,12.5,3
417,3WO-Worthing,430.97500,438.57500,Analog,High,None,88.5,0,0,0,1,12.5,3
418,3WS Crawley,145.75000,145.15000,Analog,High,None,88.5,0,0,0,1,12.5,3
419,3XP Morden,145.68750,145.08750,Analog,High,None,82.5,0,0,0,1,12.5,3
420,3YL-Lowestoft,433.35000,434.95000,Analog,High,None,94.8,0,0,0,1,12.5,3
421,3ZX-Eastbourn,430.82500,438.42500,Analog,High,None,88.5,0,0,0,1,12.5,3
422,7CE-Colchestr,430.82500,438.42500,Analog,High,None,67.0,0,0,0,1,12.5,3
423,7RY-Rye,430.95000,438.55000,Analog,High,None,103.5,0,0,0,1,12.5,3
424,7SV-Hitchin,433.27500,434.87500,Analog,High,None,82.5,0,0,0,1,12.5,3
425,7SX-BognorReg,439.77500,430.77500,Analog,High,None,88.5,0,0,0,1,12.5,3
426,3AA Bristol,145.66250,145.06250,Analog,High,None,94.8,0,0,0,1,12.5,3
427,3AC-Bristol,430.97500,438.57500,Analog,High,None,94.8,0,0,0,1,12.5,3
428,3AL Amersham,145.73750,145.13750,Analog,High,None,77.0,0,0,0,1,12.5,3
429,3AU-Amersham,433.17500,434.77500,Analog,High,None,82.5,0,0,0,1,12.5,3
430,3AV-Aylesbury,433.05000,434.65000,Analog,High,None,118.8,0,0,0,1,12.5,3
431,3AW-Newbury,433.25000,434.85000,Analog,High,None,71.9,0,0,0,1,12.5,3
432,3BN-Bracknell,433.00000,434.60000,Analog,High,None,118.8,0,0,0,1,12.5,3
433,3BS-Bristol,430.85000,438.45000,Analog,High,None,118.8,0,0,0,1,12.5,3
434,3CG Glouste,145.72500,145.12500,Analog,High,None,118.8,0,0,0,1,12.5,3
435,3CH-Liskeard,433.05000,434.65000,Analog,High,None,77.0,0,0,0,1,12.5,3
436,3DI-Didcot,433.15000,434.75000,Analog,High,None,118.8,0,0,0,1,12.5,3
437,3DN Stibb Cro,145.63750,145.03750,Analog,High,None,77.0,0,0,0,1,12.5,3
438,3DQ-Polperro,430.97500,438.57500,Analog,High,None,77.0,0,0,0,1,12.5,3
439,3DR Dorchestr,145.73750,145.13750,Analog,High,None,71.9,0,0,0,1,12.5,3
440,3DT-Blandford,433.00000,434.60000,Analog,High,None,71.9,0,0,0,1,12.5,3
441,3EW Exeter,145.61250,145.01250,Analog,High,None,77.0,0,0,0,1,12.5,3
442,3EX-Silverton,430.95000,438.55000,Analog,High,None,77.0,0,0,0,1,12.5,3
443,3FI-Cheddar,430.92500,438.52500,Analog,High,None,77.0,0,0,0,1,12.5,3
444,3FN-Farnham,433.37500,434.97500,Analog,High,None,82.5,0,0,0,1,12.5,3
445,3GH-Gloucestr,433.12500,434.72500,Analog,High,None,118.8,0,0,0,1,12.5,3
446,3GJ St Helier,145.63750,145.03750,Analog,High,None,71.9,0,0,0,1,12.5,3
447,3GU-Guernsey,433.32500,434.92500,Analog,High,None,71.9,0,0,0,1,12.5,3
448,3HB-Roche,433.37500,434.97500,Analog,High,None,77.0,0,0,0,1,12.5,3
449,3IE-Plymouth,430.85000,438.45000,Analog,High,None,77.0,0,0,0,1,12.5,3
450,3IW-Ventnor,433.22500,434.82500,Analog,High,None,71.9,0,0,0,1,12.5,3
451,3JB Mere Wilt,145.78750,145.18750,Analog,High,None,103.5,0,0,0,1,12.5,3
452,3JL Liskeard,145.78750,145.18750,Analog,High,None,77.0,0,0,0,1,12.5,3
453,3JU-St Helier,430.90000,438.50000,Analog,High,None,88.5,0,0,0,1,12.5,3
454,3LZ Lapford,145.66250,145.06250,Analog,High,None,77.0,0,0,0,1,12.5,3
455,3MK-Milton K,433.00000,434.60000,Analog,High,None,77.0,0,0,0,1,12.5,3
456,3NC Roche,145.72500,145.12500,Analog,High,None,77.0,0,0,0,1,12.5,3
457,3ND-Bideford,433.35000,434.95000,Analog,High,None,77.0,0,0,0,1,12.5,3
458,3NE Newbury,145.76250,145.16250,Analog,High,None,118.8,0,0,0,1,12.5,3
459,3PB Poole,145.62500,145.02500,Analog,High,None,71.9,0,0,0,1,12.5,3
460,3PG-Portsmth,433.05000,434.65000,Analog,High,None,71.9,0,0,0,1,12.5,3
461,3PL E Cornwal,145.76250,145.16250,Analog,High,None,77.0,0,0,0,1,12.5,3
462,3RC-Cheltenhm,430.86250,438.46250,Analog,High,None,103.5,0,0,0,1,12.5,3
463,3RD Reading,145.67500,145.07500,Analog,High,None,118.8,0,0,0,1,12.5,3
464,3RH-Axminster,433.27500,434.87500,Analog,High,None,94.8,0,0,0,1,12.5,3
465,3RU-Reading,433.27500,434.87500,Analog,High,None,118.8,0,0,0,1,12.5,3
466,3SD-Weymouth,433.35000,434.95000,Analog,High,None,71.9,0,0,0,1,12.5,3
467,3SF-S Molton,430.93750,438.53750,Analog,High,None,77.0,0,0,0,1,12.5,3
468,3SH Southampt,145.66250,145.06250,Analog,High,None,71.9,0,0,0,1,12.5,3
469,3SI Helston,145.62500,145.02500,Analog,High,None,77.0,0,0,0,1,12.5,3
470,3SN Alton Hts,145.72500,145.12500,Analog,High,None,71.9,0,0,0,1,12.5,3
471,3SU-Southampt,433.20000,434.80000,Analog,High,None,71.9,0,0,0,1,12.5,3
472,3SW Sidmouth,145.71250,145.11250,Analog,High,None,77.0,0,0,0,1,12.5,3
473,3TD-Swindon,433.07500,434.67500,Analog,High,None,118.8,0,0,0,1,12.5,3
474,3TR Torquay,145.65000,145.05000,Analog,High,None,94.8,0,0,0,1,12.5,3
475,3TU-Tring,433.22500,434.82500,Analog,High,None,77.0,0,0,0,1,12.5,3
476,3UB-Bath,433.10000,434.70000,Analog,High,None,118.8,0,0,0,1,12.5,3
477,3VA Brill,145.70000,145.10000,Analog,High,None,118.8,0,0,0,1,12.5,3
478,3VS-Taunton,433.07500,434.67500,Analog,High,None,94.8,0,0,0,1,12.5,3
479,3WB-Weston SM,433.30000,434.90000,Analog,High,None,94.8,0,0,0,1,12.5,3
480,3WD Ivybridge,145.70000,145.10000,Analog,High,None,77.0,0,0,0,1,12.5,3
481,3WE Weston SM,145.68750,145.08750,Analog,High,None,94.8,0,0,0,1,12.5,3
482,3WH Swindon,145.65000,145.05000,Analog,High,None,118.8,0,0,0,1,12.5,3
483,3WR Cheddar,145.60000,145.00000,Analog,High,None,94.8,0,0,0,1,12.5,3
484,3YS-Yeovil,433.05000,434.65000,Analog,High,None,88.5,0,0,0,1,12.5,3
485,3ZB-Bristol,430.82500,438.42500,Analog,High,None,77.0,0,0,0,1,12.5,3
486,7CM Blandford,145.70000,145.10000,Analog,High,None,71.9,0,0,0,1,12.5,3
487,7ER Exeter,145.77500,145.17500,Analog,High,None,77.0,0,0,0,1,12.5,3
488,7FI-Axbridge,430.88750,438.48750,Analog,High,None,77.0,0,0,0,1,12.5,3
489,7IE Plymouth,145.67500,145.07500,Analog,High,None,77.0,0,0,0,1,12.5,3
490,7SZ-Poole,430.93750,438.53750,Analog,High,None,71.9,0,0,0,1,12.5,3
491,7TQ-Torquay,430.88750,438.48750,Analog,High,None,94.8,0,0,0,1,12.5,3
492,3AN-Amlwch,433.20000,434.80000,Analog,High,None,110.9,0,0,0,1,12.5,3
493,3AP Pembrke D,145.61250,145.01250,Analog,High,None,94.8,0,0,0,1,12.5,3
494,3AR Caernarfo,145.70000,145.10000,Analog,High,None,110.9,0,0,0,1,12.5,3
495,3BB Brecon,145.70000,145.10000,Analog,High,None,94.8,0,0,0,1,12.5,3
496,3BC Pontyprid,145.75000,145.15000,Analog,High,None,94.8,0,0,0,1,12.5,3
497,3BG-Blaenavon,433.22500,434.82500,Analog,High,None,94.8,0,0,0,1,12.5,3
498,3BX Much Wenlo,145.67500,145.07500,Analog,High,None,146.2,0,0,0,1,12.5,3
499,3CM-Carmarthn,433.20000,434.80000,Analog,High,None,94.8,0,0,0,1,12.5,3
500,3CR-Caergwrle,433.15000,434.75000,Analog,High,None,110.9,0,0,0,1,12.5,3
501,3CW-Newtown P,433.10000,434.70000,Analog,High,None,103.5,0,0,0,1,12.5,3
502,3DW Harlech,145.66250,145.06250,Analog,High,None,110.9,0,0,0,1,12.5,3
503,3FG Carmarthn,145.71250,145.11250,Analog,High,None,94.8,0,0,0,1,12.5,3
504,3GO Llandudno,145.78750,145.18750,Analog,High,None,110.9,0,0,0,1,12.5,3
505,3GW-Harlech,430.88750,438.48750,Analog,High,None,110.9,0,0,0,1,12.5,3
506,3HC-Hereford,433.15000,434.75000,Analog,High,None,118.8,0,0,0,1,12.5,3
507,3KA-Kiddermin,430.88750,438.48750,Analog,High,None,118.8,0,0,0,1,12.5,3
508,3KD Kiddermin,145.78750,145.18750,Analog,High,None,118.8,0,0,0,1,12.5,3
509,3LH-Shrewsbry,433.37500,434.97500,Analog,High,None,103.5,0,0,0,1,12.5,3
510,3LL-Llandudno,433.00000,434.60000,Analog,High,None,110.9,0,0,0,1,12.5,3
511,3MB-Merthyr,433.37500,434.97500,Analog,High,None,94.8,0,0,0,1,12.5,3
512,3MG-Pontyprid,430.90000,438.50000,Analog,High,None,94.8,0,0,0,1,12.5,3
513,3MP Prestatyn,145.75000,145.15000,Analog,High,None,110.9,0,0,0,1,12.5,3
514,3PW Newtown P,145.77500,145.17500,Analog,High,None,103.5,0,0,0,1,12.5,3
515,3RA Lllandrind,145.63750,145.03750,Analog,High,None,103.5,0,0,0,1,12.5,3
516,3RTCwmbran,433.00000,434.60000,Analog,High,None,94.8,0,0,0,1,12.5,3
517,3SP-Pembroke,433.10000,434.70000,Analog,High,None,94.8,0,0,0,1,12.5,3
518,3TF-Telford,433.20000,434.80000,Analog,High,None,103.5,0,0,0,1,12.5,3
519,3UO-Chirk,430.82500,438.42500,Analog,High,None,110.9,0,0,0,1,12.5,3
520,3UP-Fishguard,430.91250,438.51250,Analog,High,None,94.8,0,0,0,1,12.5,3
521,3VD-Ludlow,433.02500,434.62500,Analog,High,None,103.5,0,0,0,1,12.5,3
522,3VM Ludlow,145.61250,145.01250,Analog,High,None,103.5,0,0,0,1,12.5,3
523,3VN-Ludlow,430.92500,438.52500,Analog,High,None,103.5,0,0,0,1,12.5,3
524,3VO Chirk,145.63750,145.03750,Analog,High,None,110.9,0,0,0,1,12.5,3
525,3WG-Pt Talbot,430.87500,438.47500,Analog,High,None,94.8,0,0,0,1,12.5,3
526,3WU-Worcester,430.82500,438.42500,Analog,High,None,118.8,0,0,0,1,12.5,3
527,3WW Pt Talbot,145.77500,145.17500,Analog,High,None,94.8,0,0,0,1,12.5,3
528,3ZA Hereford,145.73750,145.13750,Analog,High,None,118.8,0,0,0,1,12.5,3
529,7FG-Carmarthen,430.95000,438.55000,Analog,High,None,94.8,0,0,0,1,12.5,3
530,7YZ-Mold,439.47500,430.47500,Analog,High,None,110.9,0,0,0,1,12.5,3
531,3INs1-Echo,145.63750,145.03750,Digital,High,None,None,1,0,5,1,12.5,3
532,3INs1t91WW,145.03750,145.03750,Digital,High,None,None,1,2,1,1,12.5,3
533,3INs1t92EU,145.63750,145.03750,Digital,High,None,None,1,3,4,1,12.5,3
534,3INs1t93USA,145.63750,145.03750,Digital,High,None,None,1,4,3,1,12.5,3
535,3INs1t9Loc,145.63750,145.03750,Digital,High,None,None,1,1,1,1,12.5,3
536,3INs2-Echo,145.63750,145.03750,Digital,High,None,None,1,0,5,2,12.5,3
537,3INs2t9Loc,145.63750,145.03750,Digital,High,None,None,1,1,1,2,12.5,3
538,3XLs1-Echo,430.88750,438.48750,Digital,High,None,None,1,0,5,1,12.5,3
539,3XLs1t91WW,430.88750,438.48750,Digital,High,None,None,1,2,2,1,12.5,3
540,3XLs1t92EU,430.88750,438.48750,Digital,High,None,None,1,3,4,1,12.5,3
541,3XLs1t93USA,430.88750,438.48750,Digital,High,None,None,1,4,3,1,12.5,3
542,3XLs1t9Loc,430.88750,438.48750,Digital,High,None,None,1,1,1,1,12.5,3
543,3XLs2-Echo,430.88750,438.48750,Digital,High,None,None,1,0,5,2,12.5,3
544,3XLs2t9Loc,430.88750,438.48750,Digital,High,None,None,1,1,1,2,12.5,3
545,7BBs1-Echo,439.71250,430.71250,Digital,High,None,None,1,0,5,1,12.5,3
546,7BBs1t91WW,439.71250,430.71250,Digital,High,None,None,1,2,2,1,12.5,3
547,7BBs1t92EU,439.71250,430.71250,Digital,High,None,None,1,3,4,1,12.5,3
548,7BBs1t93USA,439.71250,430.71250,Digital,High,None,None,1,4,3,1,12.5,3
549,7BBs1t9Loc,439.71250,430.71250,Digital,High,None,None,1,1,1,1,12.5,3
550,7BBs2-Echo,439.71250,430.71250,Digital,High,None,None,1,0,5,2,12.5,3
551,7BBs2t9Loc,439.71250,430.71250,Digital,High,None,None,1,1,1,2,12.5,3
552,7BFs1-Echo,439.67500,430.67500,Digital,High,None,None,5,0,5,1,12.5,3
553,7BFs1t91WW,439.67500,430.67500,Digital,High,None,None,5,2,2,1,12.5,3
554,7BFs1t92EU,439.67500,430.67500,Digital,High,None,None,5,3,4,1,12.5,3
555,7BFs1t93USA,439.67500,430.67500,Digital,High,None,None,5,4,3,1,12.5,3
556,7BFs1t9Loc,439.67500,430.67500,Digital,High,None,None,5,1,1,1,12.5,3
557,7BFs2-Echo,439.67500,430.67500,Digital,High,None,None,5,0,5,2,12.5,3
558,7BFs2t9Loc,439.67500,430.67500,Digital,High,None,None,5,1,1,2,12.5,3
559,7BIs1-Echo,439.66250,430.66250,Digital,High,None,None,1,0,5,1,12.5,3
560,7BIs1t91WW,439.66250,430.66250,Digital,High,None,None,1,2,2,1,12.5,3
561,7BIs1t92EU,439.66250,430.66250,Digital,High,None,None,1,3,4,1,12.5,3
562,7BIs1t93USA,439.66250,430.66250,Digital,High,None,None,1,4,3,1,12.5,3
563,7BIs1t9Loc,439.66250,430.66250,Digital,High,None,None,1,1,1,1,12.5,3
564,7BIs2-Echo,439.66250,430.66250,Digital,High,None,None,1,0,5,2,12.5,3
565,7BIs2t9Loc,439.66250,430.66250,Digital,High,None,None,1,1,1,2,12.5,3
566,7CXs1-Echo,439.42500,430.42500,Digital,High,None,None,1,0,5,1,12.5,3
567,7CXs1t91WW,439.42500,430.42500,Digital,High,None,None,1,2,2,1,12.5,3
568,7CXs1t92EU,439.42500,430.42500,Digital,High,None,None,1,3,4,1,12.5,3
569,7CXs1t93USA,439.42500,430.42500,Digital,High,None,None,1,4,3,1,12.5,3
570,7CXs1t9Loc,439.42500,430.42500,Digital,High,None,None,1,1,1,1,12.5,3
571,7CXs2-Echo,439.42500,430.42500,Digital,High,None,None,1,0,5,2,12.5,3
572,7CXs2t9Loc,439.42500,430.42500,Digital,High,None,None,1,1,1,2,12.5,3
573,7DCs1-Echo,439.48750,430.48750,Digital,High,None,None,1,0,5,1,12.5,3
574,7DCs1t91WW,439.48750,430.48750,Digital,High,None,None,1,2,2,1,12.5,3
575,7DCs1t92EU,439.48750,430.48750,Digital,High,None,None,1,3,4,1,12.5,3
576,7DCs1t93USA,439.48750,430.48750,Digital,High,None,None,1,4,3,1,12.5,3
577,7DCs1t9Loc,439.48750,430.48750,Digital,High,None,None,1,1,1,1,12.5,3
578,7DCs2-Echo,439.48750,430.48750,Digital,High,None,None,1,0,5,2,12.5,3
579,7DCs2t9Loc,439.48750,430.48750,Digital,High,None,None,1,1,1,2,12.5,3
580,7DJs1-Echo,439.66250,430.66250,Digital,High,None,None,1,0,5,1,12.5,3
581,7DJs1t91WW,439.66250,430.66250,Digital,High,None,None,1,2,2,1,12.5,3
582,7DJs1t92EU,439.66250,430.66250,Digital,High,None,None,1,3,4,1,12.5,3
583,7DJs1t93USA,439.66250,430.66250,Digital,High,None,None,1,4,3,1,12.5,3
584,7DJs1t9Loc,439.66250,430.66250,Digital,High,None,None,1,1,1,1,12.5,3
585,7DJs2-Echo,439.66250,430.66250,Digital,High,None,None,1,0,5,2,12.5,3
586,7DJs2t9Loc,439.66250,430.66250,Digital,High,None,None,1,1,1,2,12.5,3
587,7DOs1-Echo,430.86250,438.46250,Digital,High,None,None,1,0,5,1,12.5,3
588,7DOs1t91WW,430.86250,438.46250,Digital,High,None,None,1,2,2,1,12.5,3
589,7DOs1t92EU,430.86250,438.46250,Digital,High,None,None,1,3,4,1,12.5,3
590,7DOs1t93USA,430.86250,438.46250,Digital,High,None,None,1,4,3,1,12.5,3
591,7DOs1t9Loc,430.86250,438.46250,Digital,High,None,None,1,1,1,1,12.5,3
592,7DOs2-Echo,430.86250,438.46250,Digital,High,None,None,1,0,5,2,12.5,3
593,7DOs2t9Loc,430.86250,438.46250,Digital,High,None,None,1,1,1,2,12.5,3
594,7EBs1-Echo,439.57500,430.57500,Digital,High,None,None,1,0,5,1,12.5,3
595,7EBs1t91WW,439.57500,430.57500,Digital,High,None,None,1,2,2,1,12.5,3
596,7EBs1t92EU,439.57500,430.57500,Digital,High,None,None,1,3,4,1,12.5,3
597,7EBs1t93USA,439.57500,430.57500,Digital,High,None,None,1,4,3,1,12.5,3
598,7EBs1t9Loc,439.57500,430.57500,Digital,High,None,None,1,1,1,1,12.5,3
599,7EBs2-Echo,439.57500,430.57500,Digital,High,None,None,1,0,5,2,12.5,3
600,7EBs2t9Loc,439.57500,430.57500,Digital,High,None,None,1,1,1,2,12.5,3
601,7EEs1-Echo,430.92500,438.52500,Digital,High,None,None,1,0,5,1,12.5,3
602,7EEs1t91WW,430.92500,438.52500,Digital,High,None,None,1,2,2,1,12.5,3
603,7EEs1t92EU,430.92500,438.52500,Digital,High,None,None,1,3,4,1,12.5,3
604,7EEs1t93USA,430.92500,438.52500,Digital,High,None,None,1,4,3,1,12.5,3
605,7EEs1t9Loc,430.92500,438.52500,Digital,High,None,None,1,1,1,1,12.5,3
606,7EEs2-Echo,430.92500,438.52500,Digital,High,None,None,1,0,5,2,12.5,3
607,7EEs2t9Loc,430.92500,438.52500,Digital,High,None,None,1,1,1,2,12.5,3
608,7FEs1-Echo,439.47500,430.47500,Digital,High,None,None,1,0,5,1,12.5,3
609,7FEs1t91WW,439.47500,430.47500,Digital,High,None,None,1,2,2,1,12.5,3
610,7FEs1t92EU,439.47500,430.47500,Digital,High,None,None,1,3,4,1,12.5,3
611,7FEs1t93USA,439.47500,430.47500,Digital,High,None,None,1,4,3,1,12.5,3
612,7FEs1t9Loc,439.47500,430.47500,Digital,High,None,None,1,1,1,1,12.5,3
613,7FEs2-Echo,439.47500,430.47500,Digital,High,None,None,1,0,5,2,12.5,3
614,7FEs2t9Loc,439.47500,430.47500,Digital,High,None,None,1,1,1,2,12.5,3
615,7FRs1-Echo,439.50000,430.50000,Digital,High,None,None,1,0,5,1,12.5,3
616,7FRs1t91WW,439.50000,430.50000,Digital,High,None,None,1,2,2,1,12.5,3
617,7FRs1t92EU,439.50000,430.50000,Digital,High,None,None,1,3,4,1,12.5,3
618,7FRs1t93USA,439.50000,430.50000,Digital,High,None,None,1,4,3,1,12.5,3
619,7FRs1t9Loc,439.50000,430.50000,Digital,High,None,None,1,1,1,1,12.5,3
620,7FRs2-Echo,439.50000,430.50000,Digital,High,None,None,1,0,5,2,12.5,3
621,7FRs2t9Loc,439.50000,430.50000,Digital,High,None,None,1,1,1,2,12.5,3
622,7GCs1-Echo,439.43750,430.43750,Digital,High,None,None,1,0,5,1,12.5,3
623,7GCs1t91WW,439.43750,430.43750,Digital,High,None,None,1,2,2,1,12.5,3
624,7GCs1t92EU,439.43750,430.43750,Digital,High,None,None,1,3,4,1,12.5,3
625,7GCs1t93USA,439.43750,430.43750,Digital,High,None,None,1,4,3,1,12.5,3
626,7GCs1t9Loc,439.43750,430.43750,Digital,High,None,None,1,1,1,1,12.5,3
627,7GCs2-Echo,439.43750,430.43750,Digital,High,None,None,1,0,5,2,12.5,3
628,7GCs2t9Loc,439.43750,430.43750,Digital,High,None,None,1,1,1,2,12.5,3
629,7GGs1-Echo,439.62500,430.62500,Digital,High,None,None,1,0,5,1,12.5,3
630,7GGs1t91WW,439.62500,430.62500,Digital,High,None,None,1,2,2,1,12.5,3
631,7GGs1t92EU,439.62500,430.62500,Digital,High,None,None,1,3,4,1,12.5,3
632,7GGs1t93USA,439.62500,430.62500,Digital,High,None,None,1,4,3,1,12.5,3
633,7GGs1t9Loc,439.62500,430.62500,Digital,High,None,None,1,1,1,1,12.5,3
634,7GGs2-Echo,439.62500,430.62500,Digital,High,None,None,1,0,5,2,12.5,3
635,7GGs2t9Loc,439.62500,430.62500,Digital,High,None,None,1,1,1,2,12.5,3
636,7HIs1-Echo,439.73750,430.73750,Digital,High,None,None,1,0,5,1,12.5,3
637,7HIs1t91WW,439.73750,430.73750,Digital,High,None,None,1,2,2,1,12.5,3
638,7HIs1t92EU,439.73750,430.73750,Digital,High,None,None,1,3,4,1,12.5,3
639,7HIs1t93USA,439.73750,430.73750,Digital,High,None,None,1,4,3,1,12.5,3
640,7HIs1t9Loc,439.73750,430.73750,Digital,High,None,None,1,1,1,1,12.5,3
641,7HIs2-Echo,439.73750,430.73750,Digital,High,None,None,1,0,5,2,12.5,3
642,7HIs2t9Loc,439.73750,430.73750,Digital,High,None,None,1,1,1,2,12.5,3
643,7INs1-Echo,439.65000,430.65000,Digital,High,None,None,1,0,5,1,12.5,3
644,7INs1t91WW,439.65000,430.65000,Digital,High,None,None,1,2,2,1,12.5,3
645,7INs1t92EU,439.65000,430.65000,Digital,High,None,None,1,3,4,1,12.5,3
646,7INs1t93USA,439.65000,430.65000,Digital,High,None,None,1,4,3,1,12.5,3
647,7INs1t9Loc,439.65000,430.65000,Digital,High,None,None,1,1,1,1,12.5,3
648,7INs2-Echo,439.65000,430.65000,Digital,High,None,None,1,0,5,2,12.5,3
649,7INs2t9Loc,439.65000,430.65000,Digital,High,None,None,1,1,1,2,12.5,3
650,7JDs1-Echo,439.41250,430.41250,Digital,High,None,None,1,0,5,1,12.5,3
651,7JDs1t91WW,439.41250,430.41250,Digital,High,None,None,1,2,2,1,12.5,3
652,7JDs1t92EU,439.41250,430.41250,Digital,High,None,None,1,3,4,1,12.5,3
653,7JDs1t93USA,439.41250,430.41250,Digital,High,None,None,1,4,3,1,12.5,3
654,7JDs1t9Loc,439.41250,430.41250,Digital,High,None,None,1,1,1,1,12.5,3
655,7JDs2-Echo,439.41250,430.41250,Digital,High,None,None,1,0,5,2,12.5,3
656,7JDs2t9Loc,439.41250,430.41250,Digital,High,None,None,1,1,1,2,12.5,3
657,7JLs1-Echo,430.96250,438.56250,Digital,High,None,None,1,0,5,1,12.5,3
658,7JLs1t91WW,430.96250,438.56250,Digital,High,None,None,1,2,2,1,12.5,3
659,7JLs1t92EU,430.96250,438.56250,Digital,High,None,None,1,3,4,1,12.5,3
660,7JLs1t93USA,430.96250,438.56250,Digital,High,None,None,1,4,3,1,12.5,3
661,7JLs1t9Loc,430.96250,438.56250,Digital,High,None,None,1,1,1,1,12.5,3
662,7JLs2-Echo,430.96250,438.56250,Digital,High,None,None,1,0,5,2,12.5,3
663,7JLs2t9Loc,430.96250,438.56250,Digital,High,None,None,1,1,1,2,12.5,3
664,7JMs1-Echo,430.88750,438.48750,Digital,High,None,None,1,0,5,1,12.5,3
665,7JMs1t91WW,430.88750,438.48750,Digital,High,None,None,1,2,2,1,12.5,3
666,7JMs1t92EU,430.88750,438.48750,Digital,High,None,None,1,3,4,1,12.5,3
667,7JMs1t93USA,430.88750,438.48750,Digital,High,None,None,1,4,3,1,12.5,3
668,7JMs1t9Loc,430.88750,438.48750,Digital,High,None,None,1,1,1,1,12.5,3
669,7JMs2-Echo,430.88750,438.48750,Digital,High,None,None,1,0,5,2,12.5,3
670,7JMs2t9Loc,430.88750,438.48750,Digital,High,None,None,1,1,1,2,12.5,3
671,7KAs1-Echo,439.71250,430.71250,Digital,High,None,None,1,0,5,1,12.5,3
672,7KAs1t91WW,439.71250,430.71250,Digital,High,None,None,1,2,2,1,12.5,3
673,7KAs1t92EU,439.71250,430.71250,Digital,High,None,None,1,3,4,1,12.5,3
674,7KAs1t93USA,439.71250,430.71250,Digital,High,None,None,1,4,3,1,12.5,3
675,7KAs1t9Loc,439.71250,430.71250,Digital,High,None,None,1,1,1,1,12.5,3
676,7KAs2-Echo,439.71250,430.71250,Digital,High,None,None,1,0,5,2,12.5,3
677,7KAs2t9Loc,439.71250,430.71250,Digital,High,None,None,1,1,1,2,12.5,3
678,7KDs1-Echo,439.68750,430.68750,Digital,High,None,None,1,0,5,1,12.5,3
679,7KDs1t91WW,439.68750,430.68750,Digital,High,None,None,1,2,2,1,12.5,3
680,7KDs1t92EU,439.68750,430.68750,Digital,High,None,None,1,3,4,1,12.5,3
681,7KDs1t93USA,439.68750,430.68750,Digital,High,None,None,1,4,3,1,12.5,3
682,7KDs1t9Loc,439.68750,430.68750,Digital,High,None,None,1,1,1,1,12.5,3
683,7KDs2-Echo,439.68750,430.68750,Digital,High,None,None,1,0,5,2,12.5,3
684,7KDs2t9Loc,439.68750,430.68750,Digital,High,None,None,1,1,1,2,12.5,3
685,7KEs1-Echo,430.97500,438.57500,Digital,High,None,None,1,0,5,1,12.5,3
686,7KEs1t91WW,430.97500,438.57500,Digital,High,None,None,1,2,2,1,12.5,3
687,7KEs1t92EU,430.97500,438.57500,Digital,High,None,None,1,3,4,1,12.5,3
688,7KEs1t93USA,430.97500,438.57500,Digital,High,None,None,1,4,3,1,12.5,3
689,7KEs1t9Loc,430.97500,438.57500,Digital,High,None,None,1,1,1,1,12.5,3
690,7KEs2-Echo,430.97500,438.57500,Digital,High,None,None,1,0,5,2,12.5,3
691,7KEs2t9Loc,430.97500,438.57500,Digital,High,None,None,1,1,1,2,12.5,3
692,7KHs1-Echo,439.61250,430.61250,Digital,High,None,None,1,0,5,1,12.5,3
693,7KHs1t91WW,439.61250,430.61250,Digital,High,None,None,1,2,2,1,12.5,3
694,7KHs1t92EU,439.61250,430.61250,Digital,High,None,None,1,3,4,1,12.5,3
695,7KHs1t93USA,439.61250,430.61250,Digital,High,None,None,1,4,3,1,12.5,3
696,7KHs1t9Loc,439.61250,430.61250,Digital,High,None,None,1,1,1,1,12.5,3
697,7KHs2-Echo,439.61250,430.61250,Digital,High,None,None,1,0,5,2,12.5,3
698,7KHs2t9Loc,439.61250,430.61250,Digital,High,None,None,1,1,1,2,12.5,3
699,7LNs1-Echo,439.40000,430.40000,Digital,High,None,None,1,0,5,1,12.5,3
700,7LNs1t91WW,439.40000,430.40000,Digital,High,None,None,1,2,2,1,12.5,3
701,7LNs1t92EU,439.40000,430.40000,Digital,High,None,None,1,3,4,1,12.5,3
702,7LNs1t93USA,439.40000,430.40000,Digital,High,None,None,1,4,3,1,12.5,3
703,7LNs1t9Loc,439.40000,430.40000,Digital,High,None,None,1,1,1,1,12.5,3
704,7LNs2-Echo,439.40000,430.40000,Digital,High,None,None,1,0,5,2,12.5,3
705,7LNs2t9Loc,439.40000,430.40000,Digital,High,None,None,1,1,1,2,12.5,3
706,7LRs1-Echo,439.47500,430.47500,Digital,High,None,None,1,0,5,1,12.5,3
707,7LRs1t91WW,439.47500,430.47500,Digital,High,None,None,1,2,2,1,12.5,3
708,7LRs1t92EU,439.47500,430.47500,Digital,High,None,None,1,3,4,1,12.5,3
709,7LRs1t93USA,439.47500,430.47500,Digital,High,None,None,1,4,3,1,12.5,3
710,7LRs1t9Loc,439.47500,430.47500,Digital,High,None,None,1,1,1,1,12.5,3
711,7LRs2-Echo,439.47500,430.47500,Digital,High,None,None,1,0,5,2,12.5,3
712,7LRs2t9Loc,439.47500,430.47500,Digital,High,None,None,1,1,1,2,12.5,3
713,7LSs1-Echo,439.40000,430.40000,Digital,High,None,None,1,0,5,1,12.5,3
714,7LSs1t91WW,439.40000,430.40000,Digital,High,None,None,1,2,2,1,12.5,3
715,7LSs1t92EU,439.40000,430.40000,Digital,High,None,None,1,3,4,1,12.5,3
716,7LSs1t93USA,439.40000,430.40000,Digital,High,None,None,1,4,3,1,12.5,3
717,7LSs1t9Loc,439.40000,430.40000,Digital,High,None,None,1,1,1,1,12.5,3
718,7LSs2-Echo,439.40000,430.40000,Digital,High,None,None,1,0,5,2,12.5,3
719,7LSs2t9Loc,439.40000,430.40000,Digital,High,None,None,1,1,1,2,12.5,3
720,7MHs1-Echo,439.63750,430.63750,Digital,High,None,None,1,0,5,1,12.5,3
721,7MHs1t91WW,439.63750,430.63750,Digital,High,None,None,1,2,2,1,12.5,3
722,7MHs1t92EU,439.63750,430.63750,Digital,High,None,None,1,3,4,1,12.5,3
723,7MHs1t93USA,439.63750,430.63750,Digital,High,None,None,1,4,3,1,12.5,3
724,7MHs1t9Loc,439.63750,430.63750,Digital,High,None,None,1,1,1,1,12.5,3
725,7MHs2-Echo,439.63750,430.63750,Digital,High,None,None,1,0,5,2,12.5,3
726,7MHs2t9Loc,439.63750,430.63750,Digital,High,None,None,1,1,1,2,12.5,3
727,7MWs1-Echo,439.48750,430.48750,Digital,High,None,None,1,0,5,1,12.5,3
728,7MWs1t91WW,439.48750,430.48750,Digital,High,None,None,1,2,2,1,12.5,3
729,7MWs1t92EU,439.48750,430.48750,Digital,High,None,None,1,3,4,1,12.5,3
730,7MWs1t93USA,439.48750,430.48750,Digital,High,None,None,1,4,3,1,12.5,3
731,7MWs1t9Loc,439.48750,430.48750,Digital,High,None,None,1,1,1,1,12.5,3
732,7MWs2-Echo,439.48750,430.48750,Digital,High,None,None,1,0,5,2,12.5,3
733,7MWs2t9Loc,439.48750,430.48750,Digital,High,None,None,1,1,1,2,12.5,3
734,7NFs1-Echo,439.48750,430.48750,Digital,High,None,None,1,0,5,1,12.5,3
735,7NFs1t91WW,439.48750,430.48750,Digital,High,None,None,1,2,2,1,12.5,3
736,7NFs1t92EU,439.48750,430.48750,Digital,High,None,None,1,3,4,1,12.5,3
737,7NFs1t93USA,439.48750,430.48750,Digital,High,None,None,1,4,3,1,12.5,3
738,7NFs1t9Loc,439.48750,430.48750,Digital,High,None,None,1,1,1,1,12.5,3
739,7NFs2-Echo,439.48750,430.48750,Digital,High,None,None,1,0,5,2,12.5,3
740,7NFs2t9Loc,439.48750,430.48750,Digital,High,None,None,1,1,1,2,12.5,3
741,7NYs1-Echo,439.68750,430.68750,Digital,High,None,None,1,0,5,1,12.5,3
742,7NYs1t91WW,439.68750,430.68750,Digital,High,None,None,1,2,2,1,12.5,3
743,7NYs1t92EU,439.68750,430.68750,Digital,High,None,None,1,3,4,1,12.5,3
744,7NYs1t93USA,439.68750,430.68750,Digital,High,None,None,1,4,3,1,12.5,3
745,7NYs1t9Loc,439.68750,430.68750,Digital,High,None,None,1,1,1,1,12.5,3
746,7NYs2-Echo,439.68750,430.68750,Digital,High,None,None,1,0,5,2,12.5,3
747,7NYs2t9Loc,439.68750,430.68750,Digital,High,None,None,1,1,1,2,12.5,3
748,7RRs1-Echo,439.60000,430.60000,Digital,High,None,None,1,0,5,1,12.5,3
749,7RRs1t91WW,439.60000,430.60000,Digital,High,None,None,1,2,2,1,12.5,3
750,7RRs1t92EU,439.60000,430.60000,Digital,High,None,None,1,3,4,1,12.5,3
751,7RRs1t93USA,439.60000,430.60000,Digital,High,None,None,1,4,3,1,12.5,3
752,7RRs1t9Loc,439.60000,430.60000,Digital,High,None,None,1,1,1,1,12.5,3
753,7RRs2-Echo,439.60000,430.60000,Digital,High,None,None,1,0,5,2,12.5,3
754,7RRs2t9Loc,439.60000,430.60000,Digital,High,None,None,1,1,1,2,12.5,3
755,7SMs1-Echo,439.58750,430.58750,Digital,High,None,None,1,0,5,1,12.5,3
756,7SMs1t91WW,439.58750,431.58750,Digital,High,None,None,1,2,2,1,12.5,3
757,7SMs1t92EU,439.58750,432.58750,Digital,High,None,None,1,3,4,1,12.5,3
758,7SMs1t93USA,439.58750,433.58750,Digital,High,None,None,1,4,3,1,12.5,3
759,7SMs1t9Loc,439.58750,434.58750,Digital,High,None,None,1,1,1,1,12.5,3
760,7SMs2-Echo,439.58750,435.58750,Digital,High,None,None,1,0,5,2,12.5,3
761,7SMs2t9Loc,439.58750,436.58750,Digital,High,None,None,1,1,1,2,12.5,3
762,7SQs1-Echo,439.67500,430.67500,Digital,High,None,None,1,0,5,1,12.5,3
763,7SQs1t91WW,439.67500,430.67500,Digital,High,None,None,1,2,2,1,12.5,3
764,7SQs1t92EU,439.67500,430.67500,Digital,High,None,None,1,3,4,1,12.5,3
765,7SQs1t93USA,439.67500,430.67500,Digital,High,None,None,1,4,3,1,12.5,3
766,7SQs1t9Loc,439.67500,430.67500,Digital,High,None,None,1,1,1,1,12.5,3
767,7SQs2-Echo,439.67500,430.67500,Digital,High,None,None,1,0,5,2,12.5,3
768,7SQs2t9Loc,439.67500,430.67500,Digital,High,None,None,1,1,1,2,12.5,3
769,7SRs1-Echo,439.63750,430.63750,Digital,High,None,None,1,0,5,1,12.5,3
770,7SRs1t91WW,439.63750,430.63750,Digital,High,None,None,1,2,2,1,12.5,3
771,7SRs1t92EU,439.63750,430.63750,Digital,High,None,None,1,3,4,1,12.5,3
772,7SRs1t93USA,439.63750,430.63750,Digital,High,None,None,1,4,3,1,12.5,3
773,7SRs1t9Loc,439.63750,430.63750,Digital,High,None,None,1,1,1,1,12.5,3
774,7SRs2-Echo,439.63750,430.63750,Digital,High,None,None,1,0,5,2,12.5,3
775,7SRs2t9Loc,439.63750,430.63750,Digital,High,None,None,1,1,1,2,12.5,3
776,7TPs1-Echo,439.68750,430.68750,Digital,High,None,None,1,0,5,1,12.5,3
777,7TPs1t9Loc,439.68750,430.68750,Digital,High,None,None,1,2,2,1,12.5,3
778,7TPs1t92EU,439.68750,430.68750,Digital,High,None,None,1,3,4,1,12.5,3
779,7TPs1t93USA,439.68750,430.68750,Digital,High,None,None,1,4,3,1,12.5,3
780,7TPs1t9Loc,439.68750,430.68750,Digital,High,None,None,1,1,1,1,12.5,3
781,7TPs2-Echo,439.68750,430.68750,Digital,High,None,None,1,0,5,2,12.5,3
782,7TPs2t9Loc,439.68750,430.68750,Digital,High,None,None,1,1,1,2,12.5,3
783,7WAs1-Echo,145.68750,145.08750,Digital,High,None,None,1,0,5,1,12.5,3
784,7WAs1t9Loc,145.68750,145.08750,Digital,High,None,None,1,2,2,1,12.5,3
785,7WAs1t92EU,145.68750,145.08750,Digital,High,None,None,1,3,4,1,12.5,3
786,7WAs1t93USA,145.68750,145.08750,Digital,High,None,None,1,4,3,1,12.5,3
787,7WAs1t9Loc,145.68750,145.08750,Digital,High,None,None,1,1,1,1,12.5,3
788,7WAs2-Echo,145.68750,145.08750,Digital,High,None,None,1,0,5,2,12.5,3
789,7WAs2t9Loc,430.48750,145.08750,Digital,High,None,None,1,1,1,2,12.5,3
790,7WBs1-Echo,430.48750,430.48750,Digital,High,None,None,1,0,5,1,12.5,3
791,7WBs1t9Loc,430.48750,430.48750,Digital,High,None,None,1,2,2,1,12.5,3
792,7WBs1t92EU,430.48750,430.48750,Digital,High,None,None,1,3,4,1,12.5,3
793,7WBs1t93USA,430.48750,430.48750,Digital,High,None,None,1,4,3,1,12.5,3
794,7WBs1t9Loc,430.48750,430.48750,Digital,High,None,None,1,1,1,1,12.5,3
795,7WBs2-Echo,430.48750,430.48750,Digital,High,None,None,1,0,5,2,12.5,3
796,7WBs2t9Loc,439.48750,430.48750,Digital,High,None,None,1,1,1,2,12.5,3
797,7WFs1-Echo,439.48750,430.48750,Digital,High,None,None,1,0,5,1,12.5,3
798,7WFs1t9Loc,439.48750,430.48750,Digital,High,None,None,1,2,2,1,12.5,3
799,7WFs1t92EU,439.48750,430.48750,Digital,High,None,None,1,3,4,1,12.5,3
800,7WFs1t93USA,439.48750,430.48750,Digital,High,None,None,1,4,3,1,12.5,3
801,7WFs1t9Loc,439.48750,430.48750,Digital,High,None,None,1,1,1,1,12.5,3
802,7WFs2-Echo,439.48750,430.48750,Digital,High,None,None,1,0,5,2,12.5,3
803,7WFs2t9Loc,439.48750,430.48750,Digital,High,None,None,1,1,1,2,12.5,3
804,7WVs1-Echo,439.68750,430.68750,Digital,High,None,None,1,0,5,1,12.5,3
805,7WVs1t9Loc,439.68750,430.68750,Digital,High,None,None,1,2,2,1,12.5,3
806,7WVs1t92EU,439.68750,430.68750,Digital,High,None,None,1,3,4,1,12.5,3
807,7WVs1t93USA,439.68750,430.68750,Digital,High,None,None,1,4,3,1,12.5,3
808,7WVs1t9Loc,439.68750,430.68750,Digital,High,None,None,1,1,1,1,12.5,3
809,7WVs2-Echo,439.68750,430.68750,Digital,High,None,None,1,0,5,2,12.5,3
810,7WVs2t9Loc,439.68750,430.68750,Digital,High,None,None,1,1,1,2,12.5,3
811,7WXs1-Echo,439.51250,430.51250,Digital,High,None,None,1,0,5,1,12.5,3
812,7WXs1t9Loc,439.51250,430.51250,Digital,High,None,None,1,2,2,1,12.5,3
813,7WXs1t92EU,439.51250,430.51250,Digital,High,None,None,1,3,4,1,12.5,3
814,7WXs1t93USA,439.51250,430.51250,Digital,High,None,None,1,4,3,1,12.5,3
815,7WXs1t9Loc,439.51250,430.51250,Digital,High,None,None,1,1,1,1,12.5,3
816,7WXs2-Echo,439.51250,430.51250,Digital,High,None,None,1,0,5,2,12.5,3
817,7WXs2t9Loc,439.51250,430.51250,Digital,High,None,None,1,1,1,2,12.5,3
818,7XXs1-Echo,439.46250,430.46250,Digital,High,None,None,1,0,5,1,12.5,3
819,7XXs1t9Loc,439.46250,430.46250,Digital,High,None,None,1,2,2,1,12.5,3
820,7XXs1t92EU,439.46250,430.46250,Digital,High,None,None,1,3,4,1,12.5,3
821,7XXs1t93USA,439.46250,430.46250,Digital,High,None,None,1,4,3,1,12.5,3
822,7XXs1t9Loc,439.46250,430.46250,Digital,High,None,None,1,1,1,1,12.5,3
823,7XXs2-Echo,439.46250,430.46250,Digital,High,None,None,1,0,5,2,12.5,3
824,7XXs2t9Loc,439.46250,430.46250,Digital,High,None,None,1,1,1,2,12.5,3
825,7YIs1-Echo,439.57500,430.57500,Digital,High,None,None,1,0,5,1,12.5,3
826,7YIs1t9Loc,439.57500,430.57500,Digital,High,None,None,1,2,2,1,12.5,3
827,7YIs1t92EU,439.57500,430.57500,Digital,High,None,None,1,3,4,1,12.5,3
828,7YIs1t93USA,439.57500,430.57500,Digital,High,None,None,1,4,3,1,12.5,3
829,7YIs1t9Loc,439.57500,430.57500,Digital,High,None,None,1,1,1,1,12.5,3
830,7YIs2-Echo,439.57500,430.57500,Digital,High,None,None,1,0,5,2,12.5,3
831,7YIs2t9Loc,439.57500,430.57500,Digital,High,None,None,1,1,1,2,12.5,3
832,7YRs1-Echo,439.52500,430.52500,Digital,High,None,None,1,0,5,1,12.5,3
833,7YRs1t9Loc,439.52500,430.52500,Digital,High,None,None,1,2,2,1,12.5,3
834,7YRs1t92EU,439.52500,430.52500,Digital,High,None,None,1,3,4,1,12.5,3
835,7YRs1t93USA,439.52500,430.52500,Digital,High,None,None,1,4,3,1,12.5,3
836,7YRs1t9Loc,439.52500,430.52500,Digital,High,None,None,1,1,1,1,12.5,3
837,7YRs2-Echo,439.52500,430.52500,Digital,High,None,None,1,0,5,2,12.5,3
838,7YRs2t9Loc,439.52500,430.52500,Digital,High,None,None,1,1,1,2,12.5,3
839,ISS VHF Dup,145.80000,145.20000,Analog,High,None,None,0,1,1,1,12.5,3
840,ISS UHF/VHF Rep,145.80000,437.80000,Analog,High,None,None,0,1,1,1,12.5,3
841,Marine-00,156.00000,156.00000,Analog,High,None,None,0,0,1,1,12.5,3
842,Marine-01,156.05000,160.65000,Analog,High,None,None,0,0,1,1,12.5,3
843,Marine-02,156.10000,160.70000,Analog,High,None,None,0,0,1,1,12.5,3
844,Marine-03,156.15000,160.75000,Analog,High,None,None,0,0,1,1,12.5,3
845,Marine-04,156.20000,160.80000,Analog,High,None,None,0,0,1,1,12.5,3
846,Marine-05,156.25000,160.85000,Analog,High,None,None,0,0,1,1,12.5,3
847,Marine-06,156.30000,156.30000,Analog,High,None,None,0,0,1,1,12.5,3
848,Marine-07,156.35000,160.95000,Analog,High,None,None,0,0,1,1,12.5,3
849,Marine-08,156.40000,156.40000,Analog,High,None,None,0,0,1,1,12.5,3
850,Marine-09,156.45000,156.45000,Analog,High,None,None,0,0,1,1,12.5,3
851,Marine-10,156.50000,156.50000,Analog,High,None,None,0,0,1,1,12.5,3
852,Marine-11,156.55000,156.55000,Analog,High,None,None,0,0,1,1,12.5,3
853,Marine-12,156.60000,156.60000,Analog,High,None,None,0,0,1,1,12.5,3
854,Marine-13,156.65000,156.65000,Analog,High,None,None,0,0,1,1,12.5,3
855,Marine-14,156.70000,156.70000,Analog,High,None,None,0,0,1,1,12.5,3
856,Marine-15,156.75000,156.75000,Analog,High,None,None,0,0,1,1,12.5,3
857,Marine-16,156.80000,156.80000,Analog,High,None,None,0,0,1,1,12.5,3
858,Marine-17,156.85000,156.85000,Analog,High,None,None,0,0,1,1,12.5,3
859,Marine-18,156.90000,161.80000,Analog,High,None,None,0,0,1,1,12.5,3
860,Marine-19,156.95000,161.55000,Analog,High,None,None,0,0,1,1,12.5,3
861,Marine-1019,156.95000,156.95000,Analog,High,None,None,0,0,1,1,12.5,3
862,Marine-2019,161.55000,161.55000,Analog,High,None,None,0,0,1,1,12.5,3
863,Marine-20,157.00000,161.60000,Analog,High,None,None,0,0,1,1,12.5,3
864,Marine-1020,157.00000,157.00000,Analog,High,None,None,0,0,1,1,12.5,3
865,Marine-2020,161.60000,161.60000,Analog,High,None,None,0,0,1,1,12.5,3
866,Marine-21,157.05000,161.65000,Analog,High,None,None,0,0,1,1,12.5,3
867,Marine-22,157.10000,161.70000,Analog,High,None,None,0,0,1,1,12.5,3
868,Marine-23,157.15000,161.75000,Analog,High,None,None,0,0,1,1,12.5,3
869,Marine-24,157.20000,161.80000,Analog,High,None,None,0,0,1,1,12.5,3
870,Marine-25,157.25000,161.85000,Analog,High,None,None,0,0,1,1,12.5,3
871,Marine-26,157.30000,161.90000,Analog,High,None,None,0,0,1,1,12.5,3
872,Marine-27,157.35000,161.95000,Analog,High,None,None,0,0,1,1,12.5,3
873,Marine-28,157.40000,162.00000,Analog,High,None,None,0,0,1,1,12.5,3
874,Marine-37(M),157.85000,157.85000,Analog,High,None,None,0,0,1,1,12.5,3
875,Marine-60,156.02500,160.62500,Analog,High,None,None,0,0,1,1,12.5,3
876,Marine-61,156.07500,160.67500,Analog,High,None,None,0,0,1,1,12.5,3
877,Marine-62,156.12500,160.72500,Analog,High,None,None,0,0,1,1,12.5,3
878,Marine-63,156.17500,160.77500,Analog,High,None,None,0,0,1,1,12.5,3
879,Marine-64,156.22500,160.82500,Analog,High,None,None,0,0,1,1,12.5,3
880,Marine-65,156.27500,160.87500,Analog,High,None,None,0,0,1,1,12.5,3
881,Marine-66,156.32500,160.92500,Analog,High,None,None,0,0,1,1,12.5,3
882,Marine-67,156.37500,156.37500,Analog,High,None,None,0,0,1,1,12.5,3
883,Marine-68,156.42500,156.42500,Analog,High,None,None,0,0,1,1,12.5,3
884,Marine-69,156.47500,156.47500,Analog,High,None,None,0,0,1,1,12.5,3
885,Marine-70,156.52500,156.52500,Analog,High,None,None,0,0,1,1,12.5,3
886,Marine-71,156.57500,156.57500,Analog,High,None,None,0,0,1,1,12.5,3
887,Marine-72,156.62500,156.62500,Analog,High,None,None,0,0,1,1,12.5,3
888,Marine-73,156.67500,156.67500,Analog,High,None,None,0,0,1,1,12.5,3
889,Marine-74,156.72500,156.72500,Analog,High,None,None,0,0,1,1,12.5,3
890,Marine-75,156.77500,156.77500,Analog,High,None,None,0,0,1,1,12.5,3
891,Marine-76,156.82500,156.82500,Analog,High,None,None,0,0,1,1,12.5,3
892,Marine-77,156.87500,156.87500,Analog,High,None,None,0,0,1,1,12.5,3
893,Marine-78,156.92500,161.52500,Analog,High,None,None,0,0,1,1,12.5,3
894,Marine-1078,156.92500,156.92500,Analog,High,None,None,0,0,1,1,12.5,3
895,Marine-2078,161.52500,161.52500,Analog,High,None,None,0,0,1,1,12.5,3
896,Marine-79,156.97500,161.57500,Analog,High,None,None,0,0,1,1,12.5,3
897,Marine-1079,156.97500,156.97500,Analog,High,None,None,0,0,1,1,12.5,3
898,Marine-2079,161.57500,161.57500,Analog,High,None,None,0,0,1,1,12.5,3
899,Marine-80,157.02500,161.62500,Analog,High,None,None,0,0,1,1,12.5,3
900,Marine-81,157.07500,161.67500,Analog,High,None,None,0,0,1,1,12.5,3
901,Marine-82,157.12500,161.72500,Analog,High,None,None,0,0,1,1,12.5,3
902,Marine-83,157.17500,161.77500,Analog,High,None,None,0,0,1,1,12.5,3
903,Marine-84,157.22500,161.82500,Analog,High,None,None,0,0,1,1,12.5,3
904,Marine-85,157.27500,161.87500,Analog,High,None,None,0,0,1,1,12.5,3
905,Marine-86,157.32500,161.92500,Analog,High,None,None,0,0,1,1,12.5,3
906,Marine-87,157.37500,157.37500,Analog,High,None,None,0,0,1,1,12.5,3
907,Marine-88,157.42500,157.42500,Analog,High,None,None,0,0,1,1,12.5,3
908,Marine-M,157.85000,157.85000,Analog,High,None,None,0,0,1,1,12.5,3
909,Marine-M2,161.42500,161.42500,Analog,High,None,None,0,0,1,1,12.5,3
910,LPD43 C1,433.07500,433.07500,Analog,High,None,None,0,0,1,1,12.5,3
911,LPD43 C2,433.10000,433.10000,Analog,High,None,None,0,0,1,1,12.5,3
912,LPD43 C3,433.12500,433.12500,Analog,High,None,None,0,0,1,1,12.5,3
913,LPD43 C4,433.15000,433.15000,Analog,High,None,None,0,0,1,1,12.5,3
914,LPD43 C5,433.17500,433.17500,Analog,High,None,None,0,0,1,1,12.5,3
915,LPD43 C6,433.20000,433.20000,Analog,High,None,None,0,0,1,1,12.5,3
916,LPD43 C7,433.22500,433.22500,Analog,High,None,None,0,0,1,1,12.5,3
917,LPD43 C8,433.25000,433.25000,Analog,High,None,None,0,0,1,1,12.5,3
918,LPD43 C9,433.27500,433.27500,Analog,High,None,None,0,0,1,1,12.5,3
919,LPD43 C10,433.30000,433.30000,Analog,High,None,None,0,0,1,1,12.5,3
920,LPD43 C11,433.32500,433.32500,Analog,High,None,None,0,0,1,1,12.5,3
921,LPD43 C12,433.35000,433.35000,Analog,High,None,None,0,0,1,1,12.5,3
922,LPD43 C13,433.37500,433.37500,Analog,High,None,None,0,0,1,1,12.5,3
923,LPD43 C14,433.40000,433.40000,Analog,High,None,None,0,0,1,1,12.5,3
924,LPD43 C15,433.42500,433.42500,Analog,High,None,None,0,0,1,1,12.5,3
925,LPD43 C16,433.45000,433.45000,Analog,High,None,None,0,0,1,1,12.5,3
926,LPD43 C17,433.47500,433.47500,Analog,High,None,None,0,0,1,1,12.5,3
927,LPD43 C18,433.50000,433.50000,Analog,High,None,None,0,0,1,1,12.5,3
928,LPD43 C19,433.52500,433.52500,Analog,High,None,None,0,0,1,1,12.5,3
929,LPD43 C20,433.55000,433.55000,Analog,High,None,None,0,0,1,1,12.5,3
930,LPD43 C21,433.57500,433.57500,Analog,High,None,None,0,0,1,1,12.5,3
931,LPD43 C22,433.60000,433.60000,Analog,High,None,None,0,0,1,1,12.5,3
932,LPD43 C23,433.62500,433.62500,Analog,High,None,None,0,0,1,1,12.5,3
933,LPD43 C24,433.65000,433.65000,Analog,High,None,None,0,0,1,1,12.5,3
934,LPD43 C25,433.67500,433.67500,Analog,High,None,None,0,0,1,1,12.5,3
935,LPD43 C26,433.70000,433.70000,Analog,High,None,None,0,0,1,1,12.5,3
936,LPD43 C27,433.72500,433.72500,Analog,High,None,None,0,0,1,1,12.5,3
937,LPD43 C28,433.75000,433.75000,Analog,High,None,None,0,0,1,1,12.5,3
938,LPD43 C29,433.77500,433.77500,Analog,High,None,None,0,0,1,1,12.5,3
939,LPD43 C30,433.80000,433.80000,Analog,High,None,None,0,0,1,1,12.5,3
940,LPD43 C31,433.82500,433.82500,Analog,High,None,None,0,0,1,1,12.5,3
941,LPD43 C32,433.85000,433.85000,Analog,High,None,None,0,0,1,1,12.5,3
942,LPD43 C33,433.87500,433.87500,Analog,High,None,None,0,0,1,1,12.5,3
943,LPD43 C34,433.90000,433.90000,Analog,High,None,None,0,0,1,1,12.5,3
944,LPD43 C35,433.92500,433.92500,Analog,High,None,None,0,0,1,1,12.5,3
945,LPD43 C36,433.95000,433.95000,Analog,High,None,None,0,0,1,1,12.5,3
946,LPD43 C37,433.97500,433.97500,Analog,High,None,None,0,0,1,1,12.5,3
947,LPD43 C38,434.00000,434.00000,Analog,High,None,None,0,0,1,1,12.5,3
948,LPD43 C39,434.02500,434.02500,Analog,High,None,None,0,0,1,1,12.5,3
949,LPD43 C40,434.05000,434.05000,Analog,High,None,None,0,0,1,1,12.5,3
950,LPD43 C41,434.07500,434.07500,Analog,High,None,None,0,0,1,1,12.5,3
951,LPD43 C42,434.10000,434.10000,Analog,High,None,None,0,0,1,1,12.5,3
952,LPD43 C43,434.12500,434.12500,Analog,High,None,None,0,0,1,1,12.5,3
953,LPD43 C44,434.15000,434.15000,Analog,High,None,None,0,0,1,1,12.5,3
954,LPD43 C45,434.17500,434.17500,Analog,High,None,None,0,0,1,1,12.5,3
955,LPD43 C46,434.20000,434.20000,Analog,High,None,None,0,0,1,1,12.5,3
956,LPD43 C47,434.22500,434.22500,Analog,High,None,None,0,0,1,1,12.5,3
957,LPD43 C48,434.25000,434.25000,Analog,High,None,None,0,0,1,1,12.5,3
958,LPD43 C49,434.27500,434.27500,Analog,High,None,None,0,0,1,1,12.5,3
959,LPD43 C50,434.30000,434.30000,Analog,High,None,None,0,0,1,1,12.5,3
960,LPD43 C51,434.32500,434.32500,Analog,High,None,None,0,0,1,1,12.5,3
961,LPD43 C52,434.35000,434.35000,Analog,High,None,None,0,0,1,1,12.5,3
962,LPD43 C53,434.37500,434.37500,Analog,High,None,None,0,0,1,1,12.5,3
963,LPD43 C54,434.40000,434.40000,Analog,High,None,None,0,0,1,1,12.5,5
964,LPD43 C55,434.42500,434.42500,Analog,High,None,None,0,0,1,1,12.5,5
965,LPD43 C56,434.45000,434.45000,Analog,High,None,None,0,0,1,1,12.5,5
966,LPD43 C57,434.47500,434.47500,Analog,High,None,None,0,0,1,1,12.5,5
967,LPD43 C58,434.50000,434.50000,Analog,High,None,None,0,0,1,1,12.5,5
968,LPD43 C59,434.52500,434.52500,Analog,High,None,None,0,0,1,1,12.5,5
969,LPD43 C60,434.55000,434.55000,Analog,High,None,None,0,0,1,1,12.5,5
970,LPD43 C61,434.57500,434.57500,Analog,High,None,None,0,0,1,1,12.5,5
971,LPD43 C62,434.60000,434.60000,Analog,High,None,None,0,0,1,1,12.5,5
972,LPD43 C63,434.62500,434.62500,Analog,High,None,None,0,0,1,1,12.5,5
973,LPD43 C64,434.65000,434.65000,Analog,High,None,None,0,0,1,1,12.5,3
974,LPD43 C65,434.67500,434.67500,Analog,High,None,None,0,0,1,1,12.5,3
975,LPD43 C66,434.70000,434.70000,Analog,High,None,None,0,0,1,1,12.5,3
976,LPD43 C67,434.72500,434.72500,Analog,High,None,None,0,0,1,1,12.5,3
977,LPD43 C68,434.75000,434.75000,Analog,High,None,None,0,0,1,1,12.5,3
978,LPD43 C69,434.77500,434.77500,Analog,High,None,None,0,0,1,1,12.5,3
979,SO-50 - On,436.80500,145.85000,Analog,High,None,74.4,0,0,1,1,25,3
980,SO-50 -1,436.80500,145.85000,Analog,High,None,67.0,0,0,1,1,25,3
981,SO-50 -2,436.80000,145.85000,Analog,High,None,67.0,0,0,1,1,25,3
982,SO-50 -3,436.79500,145.85000,Analog,High,None,67.0,0,0,1,1,25,3
983,SO-50 -4,436.79000,145.85000,Analog,High,None,67.0,0,0,1,1,25,3
984,SO-50 -5,436.78500,145.85000,Analog,High,None,67.0,0,0,1,1,25,3
985,SO-50 -6,436.78000,145.85000,Analog,High,None,67.0,0,0,1,1,25,3
986,SO-50 -7,436.77500,145.85000,Analog,High,None,67.0,0,0,1,1,25,3
987,UK Bus MB1,164.05000,164.05000,Analog,High,None,None,0,0,0,1,12.5,3
988,UK Bus MB2,164.06250,164.06250,Analog,High,None,None,0,0,0,1,12.5,3
989,UK Bus HB1,169.08750,169.08750,Analog,High,None,None,0,0,0,1,12.5,3
990,UK Bus HB2,169.31250,169.31250,Analog,High,None,None,0,0,0,1,12.5,3
991,UK Bus HB3,173.05000,173.05000,Analog,High,None,None,0,0,0,1,12.5,3
992,UK Bus HB4,173.06250,173.06250,Analog,High,None,None,0,0,0,1,12.5,3
993,UK Bus HB5,173.08750,173.08750,Analog,High,None,None,0,0,0,1,12.5,3
994,UK Bus UHF1,449.31250,449.31250,Analog,High,None,None,0,0,0,1,12.5,3
995,UK Bus UHF2,449.40000,449.40000,Analog,High,None,None,0,0,0,1,12.5,3
996,UK Bus UHF3,449.47500,449.47500,Analog,High,None,None,0,0,0,1,25,3
